(kicad_symbol_lib (version 20220914) (generator kicad_symbol_editor)
  (symbol "SN74HCS165BQBR" (pin_names (offset 0.254)) (in_bom yes) (on_board yes)
    (property "Reference" "U" (at 16.51 7.62 0)
      (effects (font (size 1.524 1.524)))
    )
    (property "Value" "SN74HCS165BQBR" (at 16.51 5.08 0)
      (effects (font (size 1.524 1.524)))
    )
    (property "Footprint" "BQB0016A-MFG" (at 16.51 -34.29 0)
      (effects (font (size 1.524 1.524)) hide)
    )
    (property "Datasheet" "" (at 0 0 0)
      (effects (font (size 1.524 1.524)))
    )
    (property "ki_locked" "" (at 0 0 0)
      (effects (font (size 1.27 1.27)))
    )
    (property "ki_fp_filters" "BQB0016A-MFG" (at 0 0 0)
      (effects (font (size 1.27 1.27)) hide)
    )
    (symbol "SN74HCS165BQBR_1_1"
      (rectangle (start 5.08 3.81) (end 30.48 -29.21)
        (stroke (width 0) (type default))
        (fill (type background))
      )
      (pin input line (at 35.56 0 180) (length 5.08)
        (name "SH/~{LD}" (effects (font (size 1.4986 1.4986))))
        (number "1" (effects (font (size 1.4986 1.4986))))
      )
      (pin input line (at 0 -5.08 0) (length 5.08)
        (name "SER" (effects (font (size 1.4986 1.4986))))
        (number "10" (effects (font (size 1.4986 1.4986))))
      )
      (pin input line (at 0 -7.62 0) (length 5.08)
        (name "A" (effects (font (size 1.4986 1.4986))))
        (number "11" (effects (font (size 1.4986 1.4986))))
      )
      (pin input line (at 0 -10.16 0) (length 5.08)
        (name "B" (effects (font (size 1.4986 1.4986))))
        (number "12" (effects (font (size 1.4986 1.4986))))
      )
      (pin input line (at 0 -12.7 0) (length 5.08)
        (name "C" (effects (font (size 1.4986 1.4986))))
        (number "13" (effects (font (size 1.4986 1.4986))))
      )
      (pin input line (at 0 -15.24 0) (length 5.08)
        (name "D" (effects (font (size 1.4986 1.4986))))
        (number "14" (effects (font (size 1.4986 1.4986))))
      )
      (pin input line (at 35.56 -12.7 180) (length 5.08)
        (name "CLK_INH" (effects (font (size 1.4986 1.4986))))
        (number "15" (effects (font (size 1.4986 1.4986))))
      )
      (pin power_in line (at 0 0 0) (length 5.08)
        (name "VCC" (effects (font (size 1.4986 1.4986))))
        (number "16" (effects (font (size 1.4986 1.4986))))
      )
      (pin power_in line (at 35.56 -22.86 180) (length 5.08)
        (name "PAD" (effects (font (size 1.4986 1.4986))))
        (number "17" (effects (font (size 1.4986 1.4986))))
      )
      (pin input line (at 35.56 -10.16 180) (length 5.08)
        (name "CLK" (effects (font (size 1.4986 1.4986))))
        (number "2" (effects (font (size 1.4986 1.4986))))
      )
      (pin input line (at 0 -17.78 0) (length 5.08)
        (name "E" (effects (font (size 1.4986 1.4986))))
        (number "3" (effects (font (size 1.4986 1.4986))))
      )
      (pin input line (at 0 -20.32 0) (length 5.08)
        (name "F" (effects (font (size 1.4986 1.4986))))
        (number "4" (effects (font (size 1.4986 1.4986))))
      )
      (pin input line (at 0 -22.86 0) (length 5.08)
        (name "G" (effects (font (size 1.4986 1.4986))))
        (number "5" (effects (font (size 1.4986 1.4986))))
      )
      (pin input line (at 0 -25.4 0) (length 5.08)
        (name "H" (effects (font (size 1.4986 1.4986))))
        (number "6" (effects (font (size 1.4986 1.4986))))
      )
      (pin output line (at 35.56 -7.62 180) (length 5.08)
        (name "~{QH}" (effects (font (size 1.4986 1.4986))))
        (number "7" (effects (font (size 1.4986 1.4986))))
      )
      (pin power_in line (at 35.56 -25.4 180) (length 5.08)
        (name "GND" (effects (font (size 1.4986 1.4986))))
        (number "8" (effects (font (size 1.4986 1.4986))))
      )
      (pin output line (at 35.56 -5.08 180) (length 5.08)
        (name "QH" (effects (font (size 1.4986 1.4986))))
        (number "9" (effects (font (size 1.4986 1.4986))))
      )
    )
  )
)
