(footprint "TMC4671-LA" (version 20221018) (generator pcbnew)
  (layer "F.Cu")
  (attr through_hole)
  (fp_text reference "REF**" (at 0 0) (layer "F.SilkS")
      (effects (font (size 1 1) (thickness 0.15)))
    (tstamp f79385ba-3cdc-4a59-a55a-b128eef36603)
  )
  (fp_text value "QFN76_10P5X6P5_TRI" (at 0 5.588) (layer "F.SilkS") hide
      (effects (font (size 1 1) (thickness 0.15)))
    (tstamp 44ecf90c-1f14-4d86-bd9b-22e1041ed895)
  )
  (fp_text user "*" (at -6.184899 -2.6) (layer "F.SilkS")
      (effects (font (size 1 1) (thickness 0.15)))
    (tstamp 3fc5009e-87a1-41d8-8a2a-a27c2d3f6c09)
  )
  (fp_text user "*" (at -6.184899 -2.6) (layer "F.SilkS")
      (effects (font (size 1 1) (thickness 0.15)))
    (tstamp 8067506c-1c16-43f5-bb56-86c5dee65da7)
  )
  (fp_text user "Copyright 2021 Accelerated Designs. All rights reserved." (at 0 0) (layer "Cmts.User")
      (effects (font (size 0.127 0.127) (thickness 0.002)))
    (tstamp b69688a3-184a-4902-bcc0-8fabe31cb7a4)
  )
  (fp_text user "*" (at -4.160099 -2.6) (layer "F.Fab")
      (effects (font (size 1 1) (thickness 0.15)))
    (tstamp 67402439-d586-4972-816a-fa4b77f1b2d8)
  )
  (fp_text user "*" (at -4.160099 -2.6) (layer "F.Fab")
      (effects (font (size 1 1) (thickness 0.15)))
    (tstamp 9a366f1c-7776-4ca4-b7e8-c65125b9c30d)
  )
  (fp_line (start -5.3721 -3.3782) (end -5.3721 -3.03434)
    (stroke (width 0.12) (type solid)) (layer "F.SilkS") (tstamp 18b21411-6534-4da2-8d5d-d6a42edbfa7d))
  (fp_line (start -5.3721 3.03434) (end -5.3721 3.3782)
    (stroke (width 0.12) (type solid)) (layer "F.SilkS") (tstamp 3cde40b3-fca7-40b1-8799-860e2a944770))
  (fp_line (start -5.3721 3.3782) (end -5.034338 3.3782)
    (stroke (width 0.12) (type solid)) (layer "F.SilkS") (tstamp 38028fff-4620-4519-bfab-7ff21347c5b6))
  (fp_line (start -5.034338 -3.3782) (end -5.3721 -3.3782)
    (stroke (width 0.12) (type solid)) (layer "F.SilkS") (tstamp ef0a0744-fc17-4238-93fd-3223b0f945b4))
  (fp_line (start 5.034338 3.3782) (end 5.3721 3.3782)
    (stroke (width 0.12) (type solid)) (layer "F.SilkS") (tstamp 4f012edb-d49b-4305-9858-1b9f7f294223))
  (fp_line (start 5.3721 -3.3782) (end 5.034338 -3.3782)
    (stroke (width 0.12) (type solid)) (layer "F.SilkS") (tstamp 9f0e5a2e-57a5-46fa-8a80-1cada1bdd4aa))
  (fp_line (start 5.3721 -3.03434) (end 5.3721 -3.3782)
    (stroke (width 0.12) (type solid)) (layer "F.SilkS") (tstamp 6c5ed9fb-a0d0-4284-8fc4-5e1f551f6dba))
  (fp_line (start 5.3721 3.3782) (end 5.3721 3.03434)
    (stroke (width 0.12) (type solid)) (layer "F.SilkS") (tstamp e16d7f6b-d561-43f8-a1b7-27e5fa64343d))
  (fp_poly
    (pts
      (xy -6.0579 0.809501)
      (xy -6.0579 1.190501)
      (xy -5.8039 1.190501)
      (xy -5.8039 0.809501)
    )

    (stroke (width 0.1) (type solid)) (fill solid) (layer "F.SilkS") (tstamp 593a84bb-6259-4af0-abf5-f2f2d2fae9bc))
  (fp_poly
    (pts
      (xy -2.7905 3.81)
      (xy -2.7905 4.064)
      (xy -2.4095 4.064)
      (xy -2.4095 3.81)
    )

    (stroke (width 0.1) (type solid)) (fill solid) (layer "F.SilkS") (tstamp 62803bcb-6ce6-4ea2-a68e-bb71fa95b003))
  (fp_poly
    (pts
      (xy -2.390501 -3.81)
      (xy -2.390501 -4.064)
      (xy -2.009501 -4.064)
      (xy -2.009501 -3.81)
    )

    (stroke (width 0.1) (type solid)) (fill solid) (layer "F.SilkS") (tstamp 46bfb5dd-5b4a-4ac4-8ddc-bb96232fa0a9))
  (fp_poly
    (pts
      (xy 1.2095 3.81)
      (xy 1.2095 4.064)
      (xy 1.5905 4.064)
      (xy 1.5905 3.81)
    )

    (stroke (width 0.1) (type solid)) (fill solid) (layer "F.SilkS") (tstamp 25fb7dfc-5560-4a5f-b7bc-ac1025408102))
  (fp_poly
    (pts
      (xy 1.609499 -3.81)
      (xy 1.609499 -4.064)
      (xy 1.990499 -4.064)
      (xy 1.990499 -3.81)
    )

    (stroke (width 0.1) (type solid)) (fill solid) (layer "F.SilkS") (tstamp e715fdbf-a02b-4707-baca-5991f97860c9))
  (fp_poly
    (pts
      (xy 6.0579 -1.990499)
      (xy 6.0579 -1.609499)
      (xy 5.8039 -1.609499)
      (xy 5.8039 -1.990499)
    )

    (stroke (width 0.1) (type solid)) (fill solid) (layer "F.SilkS") (tstamp 37ed29c7-c428-4599-abe7-7a59c0a9bc19))
  (fp_poly
    (pts
      (xy 6.0579 2.009501)
      (xy 6.0579 2.390501)
      (xy 5.8039 2.390501)
      (xy 5.8039 2.009501)
    )

    (stroke (width 0.1) (type solid)) (fill solid) (layer "F.SilkS") (tstamp da5afbbc-fd4f-4865-b2c4-f24fc2dbf5f6))
  (fp_line (start -5.8039 -2.9556) (end -5.4991 -2.9556)
    (stroke (width 0.05) (type solid)) (layer "F.CrtYd") (tstamp 9cf171a2-6c86-4b58-aa02-9217d1c15a0f))
  (fp_line (start -5.8039 -2.9556) (end -5.4991 -2.9556)
    (stroke (width 0.05) (type solid)) (layer "F.CrtYd") (tstamp c6b31910-7391-4bed-855d-c950e46b5ead))
  (fp_line (start -5.8039 2.9556) (end -5.8039 -2.9556)
    (stroke (width 0.05) (type solid)) (layer "F.CrtYd") (tstamp 60baf18e-0851-489f-ad64-f7a95275c6f5))
  (fp_line (start -5.8039 2.9556) (end -5.8039 -2.9556)
    (stroke (width 0.05) (type solid)) (layer "F.CrtYd") (tstamp bc4aa640-68ac-4ac4-8862-452fc32c8df7))
  (fp_line (start -5.4991 -3.5052) (end -4.955599 -3.5052)
    (stroke (width 0.05) (type solid)) (layer "F.CrtYd") (tstamp a16e70c7-1f0c-423d-a7ae-e1e327865a7a))
  (fp_line (start -5.4991 -3.5052) (end -4.955599 -3.5052)
    (stroke (width 0.05) (type solid)) (layer "F.CrtYd") (tstamp e6295576-e41e-4f79-a959-d34e94262814))
  (fp_line (start -5.4991 -2.9556) (end -5.4991 -3.5052)
    (stroke (width 0.05) (type solid)) (layer "F.CrtYd") (tstamp 3c701fa5-6c6e-4636-b755-9248658192f5))
  (fp_line (start -5.4991 -2.9556) (end -5.4991 -3.5052)
    (stroke (width 0.05) (type solid)) (layer "F.CrtYd") (tstamp 978dd8f9-d5a9-4755-8f87-3ae2fd9f5004))
  (fp_line (start -5.4991 2.9556) (end -5.8039 2.9556)
    (stroke (width 0.05) (type solid)) (layer "F.CrtYd") (tstamp 13ea5b60-daa9-4b99-b2c9-1fd76a6e7813))
  (fp_line (start -5.4991 2.9556) (end -5.8039 2.9556)
    (stroke (width 0.05) (type solid)) (layer "F.CrtYd") (tstamp 486131c6-0432-495f-892e-aeb096cb431b))
  (fp_line (start -5.4991 3.5052) (end -5.4991 2.9556)
    (stroke (width 0.05) (type solid)) (layer "F.CrtYd") (tstamp 566519fd-742c-4867-af56-e3e88c36d643))
  (fp_line (start -5.4991 3.5052) (end -5.4991 2.9556)
    (stroke (width 0.05) (type solid)) (layer "F.CrtYd") (tstamp b3583489-c9f4-4b62-b8c6-378542a16f20))
  (fp_line (start -4.955599 -3.81) (end 4.955599 -3.81)
    (stroke (width 0.05) (type solid)) (layer "F.CrtYd") (tstamp 7e6dd4d4-9a61-42d5-ac82-54638312b859))
  (fp_line (start -4.955599 -3.81) (end 4.955599 -3.81)
    (stroke (width 0.05) (type solid)) (layer "F.CrtYd") (tstamp e71e3206-fe86-4016-8cfa-a5d865c5c3fb))
  (fp_line (start -4.955599 -3.5052) (end -4.955599 -3.81)
    (stroke (width 0.05) (type solid)) (layer "F.CrtYd") (tstamp 426c41a7-62b5-4daa-8ebd-252fd3c6cc83))
  (fp_line (start -4.955599 -3.5052) (end -4.955599 -3.81)
    (stroke (width 0.05) (type solid)) (layer "F.CrtYd") (tstamp 65020cac-f867-4b03-b070-95f164b518d8))
  (fp_line (start -4.955599 3.5052) (end -5.4991 3.5052)
    (stroke (width 0.05) (type solid)) (layer "F.CrtYd") (tstamp 7e14cd9c-96a5-4c3a-9e9c-b6c8b872b55c))
  (fp_line (start -4.955599 3.5052) (end -5.4991 3.5052)
    (stroke (width 0.05) (type solid)) (layer "F.CrtYd") (tstamp 8531f0bc-5368-4e03-af92-361636838688))
  (fp_line (start -4.955599 3.81) (end -4.955599 3.5052)
    (stroke (width 0.05) (type solid)) (layer "F.CrtYd") (tstamp 534bb264-eec4-4b28-94f1-e55f8bb355e9))
  (fp_line (start -4.955599 3.81) (end -4.955599 3.5052)
    (stroke (width 0.05) (type solid)) (layer "F.CrtYd") (tstamp d6d63c11-c30f-4fc2-b46a-58f6d31f3738))
  (fp_line (start 4.955599 -3.81) (end 4.955599 -3.5052)
    (stroke (width 0.05) (type solid)) (layer "F.CrtYd") (tstamp a7491fcc-b5ec-4a0e-a6a5-6c8e45e51982))
  (fp_line (start 4.955599 -3.81) (end 4.955599 -3.5052)
    (stroke (width 0.05) (type solid)) (layer "F.CrtYd") (tstamp fe481df2-5673-4d11-968d-a32e4f2d3e58))
  (fp_line (start 4.955599 -3.5052) (end 5.4991 -3.5052)
    (stroke (width 0.05) (type solid)) (layer "F.CrtYd") (tstamp 60550558-8296-42bd-a613-76c636f802f5))
  (fp_line (start 4.955599 -3.5052) (end 5.4991 -3.5052)
    (stroke (width 0.05) (type solid)) (layer "F.CrtYd") (tstamp 9325e781-fcfc-428c-aac7-aaf7ed6d72e4))
  (fp_line (start 4.955599 3.5052) (end 4.955599 3.81)
    (stroke (width 0.05) (type solid)) (layer "F.CrtYd") (tstamp 3806124a-18a8-4cb2-91b1-f653e1a73d38))
  (fp_line (start 4.955599 3.5052) (end 4.955599 3.81)
    (stroke (width 0.05) (type solid)) (layer "F.CrtYd") (tstamp 665277b0-9348-47d3-8f07-1c291054dabc))
  (fp_line (start 4.955599 3.81) (end -4.955599 3.81)
    (stroke (width 0.05) (type solid)) (layer "F.CrtYd") (tstamp 5b76f96c-7d03-469e-ab87-74ee650271f4))
  (fp_line (start 4.955599 3.81) (end -4.955599 3.81)
    (stroke (width 0.05) (type solid)) (layer "F.CrtYd") (tstamp 6a40339b-5dc9-49c0-8a7d-0afa0047e96e))
  (fp_line (start 5.4991 -3.5052) (end 5.4991 -2.9556)
    (stroke (width 0.05) (type solid)) (layer "F.CrtYd") (tstamp a4d9467d-a08e-416e-83ca-586726e6a258))
  (fp_line (start 5.4991 -3.5052) (end 5.4991 -2.9556)
    (stroke (width 0.05) (type solid)) (layer "F.CrtYd") (tstamp f1c016d7-619d-4705-9691-90efce618352))
  (fp_line (start 5.4991 -2.9556) (end 5.8039 -2.9556)
    (stroke (width 0.05) (type solid)) (layer "F.CrtYd") (tstamp 37b7d418-754f-4277-8ba3-1a3522d42ba3))
  (fp_line (start 5.4991 -2.9556) (end 5.8039 -2.9556)
    (stroke (width 0.05) (type solid)) (layer "F.CrtYd") (tstamp eeca0e4e-6dc1-4621-9e2f-8cb66e142f81))
  (fp_line (start 5.4991 2.9556) (end 5.4991 3.5052)
    (stroke (width 0.05) (type solid)) (layer "F.CrtYd") (tstamp 425b3a29-67d0-426a-8aba-5a70f0451ee9))
  (fp_line (start 5.4991 2.9556) (end 5.4991 3.5052)
    (stroke (width 0.05) (type solid)) (layer "F.CrtYd") (tstamp 52067d77-1ecb-48e5-922f-f8a44e119566))
  (fp_line (start 5.4991 3.5052) (end 4.955599 3.5052)
    (stroke (width 0.05) (type solid)) (layer "F.CrtYd") (tstamp 2a8152a1-6ca5-40a4-b5d6-fff3b8dcf20e))
  (fp_line (start 5.4991 3.5052) (end 4.955599 3.5052)
    (stroke (width 0.05) (type solid)) (layer "F.CrtYd") (tstamp c1bd5f80-1335-433e-9277-256ee6350503))
  (fp_line (start 5.8039 -2.9556) (end 5.8039 2.9556)
    (stroke (width 0.05) (type solid)) (layer "F.CrtYd") (tstamp 9b79ced1-bb0b-4d5b-92ce-8c8fdb3c4a5c))
  (fp_line (start 5.8039 -2.9556) (end 5.8039 2.9556)
    (stroke (width 0.05) (type solid)) (layer "F.CrtYd") (tstamp b1129284-2858-497a-a76f-9b8d3d20d618))
  (fp_line (start 5.8039 2.9556) (end 5.4991 2.9556)
    (stroke (width 0.05) (type solid)) (layer "F.CrtYd") (tstamp 7d534df5-e858-4a4f-ad1a-3960b0ee28ff))
  (fp_line (start 5.8039 2.9556) (end 5.4991 2.9556)
    (stroke (width 0.05) (type solid)) (layer "F.CrtYd") (tstamp c84af65e-6f1a-4f8a-9dee-604c0971d50e))
  (fp_line (start -5.2451 -3.2512) (end -5.2451 3.2512)
    (stroke (width 0.1) (type solid)) (layer "F.Fab") (tstamp 6bee1218-56ce-465a-8dfe-d2e40c726d83))
  (fp_line (start -5.2451 -2.727) (end -5.2451 -2.727)
    (stroke (width 0.1) (type solid)) (layer "F.Fab") (tstamp c9ecf2a3-e720-4113-9be5-331709176e6b))
  (fp_line (start -5.2451 -2.727) (end -5.2451 -2.473)
    (stroke (width 0.1) (type solid)) (layer "F.Fab") (tstamp 554c861e-7870-4cca-bfc6-1be0a6ea0e3b))
  (fp_line (start -5.2451 -2.473) (end -5.2451 -2.727)
    (stroke (width 0.1) (type solid)) (layer "F.Fab") (tstamp 18bee883-af71-4b66-94fb-2384bd245d37))
  (fp_line (start -5.2451 -2.473) (end -5.2451 -2.473)
    (stroke (width 0.1) (type solid)) (layer "F.Fab") (tstamp 5834347c-af4c-4256-8e0e-ad7dfcab9db9))
  (fp_line (start -5.2451 -2.327) (end -5.2451 -2.327)
    (stroke (width 0.1) (type solid)) (layer "F.Fab") (tstamp 2ff44a4e-478d-40d0-be57-f4a88d275a58))
  (fp_line (start -5.2451 -2.327) (end -5.2451 -2.073)
    (stroke (width 0.1) (type solid)) (layer "F.Fab") (tstamp aa1591c2-9acb-4c9b-80d2-aac3493c0a3a))
  (fp_line (start -5.2451 -2.073) (end -5.2451 -2.327)
    (stroke (width 0.1) (type solid)) (layer "F.Fab") (tstamp 293fd47a-dc8a-47c8-826f-c72179b3cdb1))
  (fp_line (start -5.2451 -2.073) (end -5.2451 -2.073)
    (stroke (width 0.1) (type solid)) (layer "F.Fab") (tstamp 2cffe9ca-9125-4b78-8cc2-10fff2a126c0))
  (fp_line (start -5.2451 -1.9812) (end -3.9751 -3.2512)
    (stroke (width 0.1) (type solid)) (layer "F.Fab") (tstamp 443628f3-9dda-45d2-af32-544b9e0bf904))
  (fp_line (start -5.2451 -1.927) (end -5.2451 -1.927)
    (stroke (width 0.1) (type solid)) (layer "F.Fab") (tstamp c98b2f9b-4b9e-428b-9706-15cd14d10c58))
  (fp_line (start -5.2451 -1.927) (end -5.2451 -1.673)
    (stroke (width 0.1) (type solid)) (layer "F.Fab") (tstamp dcefe12a-a838-44a1-aa09-a68efc01c81f))
  (fp_line (start -5.2451 -1.673) (end -5.2451 -1.927)
    (stroke (width 0.1) (type solid)) (layer "F.Fab") (tstamp 90013c38-f497-4acb-9a36-2d7311dfeac5))
  (fp_line (start -5.2451 -1.673) (end -5.2451 -1.673)
    (stroke (width 0.1) (type solid)) (layer "F.Fab") (tstamp 6475fc77-2d8f-413f-8526-b6da8825932d))
  (fp_line (start -5.2451 -1.527) (end -5.2451 -1.527)
    (stroke (width 0.1) (type solid)) (layer "F.Fab") (tstamp 328d56c2-c4f6-460b-a13b-eade7bba2ca8))
  (fp_line (start -5.2451 -1.527) (end -5.2451 -1.273)
    (stroke (width 0.1) (type solid)) (layer "F.Fab") (tstamp ee6bcb73-96e8-44bf-96ea-1d151930834c))
  (fp_line (start -5.2451 -1.273) (end -5.2451 -1.527)
    (stroke (width 0.1) (type solid)) (layer "F.Fab") (tstamp db563361-9708-40fe-a256-d2d14bd2ced4))
  (fp_line (start -5.2451 -1.273) (end -5.2451 -1.273)
    (stroke (width 0.1) (type solid)) (layer "F.Fab") (tstamp d611e4a0-67ce-43ee-a7d6-1876af821fc2))
  (fp_line (start -5.2451 -1.127) (end -5.2451 -1.127)
    (stroke (width 0.1) (type solid)) (layer "F.Fab") (tstamp 49c19cc7-b4b8-4548-a58b-ef855e5d8cb6))
  (fp_line (start -5.2451 -1.127) (end -5.2451 -0.873)
    (stroke (width 0.1) (type solid)) (layer "F.Fab") (tstamp 5c94b529-5092-4bfc-8083-6e2309b77fec))
  (fp_line (start -5.2451 -0.873) (end -5.2451 -1.127)
    (stroke (width 0.1) (type solid)) (layer "F.Fab") (tstamp 399b1924-d562-4de5-8d05-f1e6cbafd6cc))
  (fp_line (start -5.2451 -0.873) (end -5.2451 -0.873)
    (stroke (width 0.1) (type solid)) (layer "F.Fab") (tstamp d629fd23-c0bc-4dc0-8dc7-db15de3930a8))
  (fp_line (start -5.2451 -0.727) (end -5.2451 -0.727)
    (stroke (width 0.1) (type solid)) (layer "F.Fab") (tstamp 06e2a9b1-9b72-4368-be4a-4907fd2accaf))
  (fp_line (start -5.2451 -0.727) (end -5.2451 -0.473)
    (stroke (width 0.1) (type solid)) (layer "F.Fab") (tstamp ce185871-b12a-4ce3-a726-93d6ba85692c))
  (fp_line (start -5.2451 -0.473) (end -5.2451 -0.727)
    (stroke (width 0.1) (type solid)) (layer "F.Fab") (tstamp 5bf2be2c-f7e7-4931-be85-ff8b9c665957))
  (fp_line (start -5.2451 -0.473) (end -5.2451 -0.473)
    (stroke (width 0.1) (type solid)) (layer "F.Fab") (tstamp cb248a52-45a1-4ea4-8a93-4a175fa5d105))
  (fp_line (start -5.2451 -0.327) (end -5.2451 -0.327)
    (stroke (width 0.1) (type solid)) (layer "F.Fab") (tstamp 072f9f83-3508-424d-8700-d5d31db9871a))
  (fp_line (start -5.2451 -0.327) (end -5.2451 -0.073)
    (stroke (width 0.1) (type solid)) (layer "F.Fab") (tstamp 1a22b3e7-51db-49da-acf8-5c87be9e54b5))
  (fp_line (start -5.2451 -0.073) (end -5.2451 -0.327)
    (stroke (width 0.1) (type solid)) (layer "F.Fab") (tstamp 6454d64f-54bb-417c-bed9-00af9f87bd59))
  (fp_line (start -5.2451 -0.073) (end -5.2451 -0.073)
    (stroke (width 0.1) (type solid)) (layer "F.Fab") (tstamp ffa822a8-3287-41f6-9f1c-bc3fe13c8cd1))
  (fp_line (start -5.2451 0.073) (end -5.2451 0.073)
    (stroke (width 0.1) (type solid)) (layer "F.Fab") (tstamp 3ba33d37-0a74-46fd-9c95-35d325759eaf))
  (fp_line (start -5.2451 0.073) (end -5.2451 0.327)
    (stroke (width 0.1) (type solid)) (layer "F.Fab") (tstamp 4b100175-5ac7-46de-8c39-f2a656daefb4))
  (fp_line (start -5.2451 0.327) (end -5.2451 0.073)
    (stroke (width 0.1) (type solid)) (layer "F.Fab") (tstamp db634b77-c995-4a98-a187-68cae3969b32))
  (fp_line (start -5.2451 0.327) (end -5.2451 0.327)
    (stroke (width 0.1) (type solid)) (layer "F.Fab") (tstamp dd1e1f86-b849-42ae-8111-4672740a430c))
  (fp_line (start -5.2451 0.473) (end -5.2451 0.473)
    (stroke (width 0.1) (type solid)) (layer "F.Fab") (tstamp 6e12a38b-e483-4ccd-a69f-602fd5248bdc))
  (fp_line (start -5.2451 0.473) (end -5.2451 0.727)
    (stroke (width 0.1) (type solid)) (layer "F.Fab") (tstamp e0d838af-3ed5-42fe-a04b-66f6f0c69186))
  (fp_line (start -5.2451 0.727) (end -5.2451 0.473)
    (stroke (width 0.1) (type solid)) (layer "F.Fab") (tstamp 17bbb3d0-fac6-4c91-8da7-60240f883cda))
  (fp_line (start -5.2451 0.727) (end -5.2451 0.727)
    (stroke (width 0.1) (type solid)) (layer "F.Fab") (tstamp ce434f7a-d2c7-447a-a95a-9f47460a919c))
  (fp_line (start -5.2451 0.873) (end -5.2451 0.873)
    (stroke (width 0.1) (type solid)) (layer "F.Fab") (tstamp 59817674-9f29-4b47-a9fc-04984b9aeb76))
  (fp_line (start -5.2451 0.873) (end -5.2451 1.127)
    (stroke (width 0.1) (type solid)) (layer "F.Fab") (tstamp de840455-e7ef-498c-952f-f029b6bf8976))
  (fp_line (start -5.2451 1.127) (end -5.2451 0.873)
    (stroke (width 0.1) (type solid)) (layer "F.Fab") (tstamp 4ffbac95-1671-43c8-a483-2ad5eabfe721))
  (fp_line (start -5.2451 1.127) (end -5.2451 1.127)
    (stroke (width 0.1) (type solid)) (layer "F.Fab") (tstamp 13653ba5-c4c4-4538-ae98-d20f39078b23))
  (fp_line (start -5.2451 1.273) (end -5.2451 1.273)
    (stroke (width 0.1) (type solid)) (layer "F.Fab") (tstamp 4a8d594f-48ea-4848-a905-61851bbff509))
  (fp_line (start -5.2451 1.273) (end -5.2451 1.527)
    (stroke (width 0.1) (type solid)) (layer "F.Fab") (tstamp 6e74aa10-39cf-46ee-8f18-bb9938539ee5))
  (fp_line (start -5.2451 1.527) (end -5.2451 1.273)
    (stroke (width 0.1) (type solid)) (layer "F.Fab") (tstamp fafbd9e0-8464-4f96-9de3-685d3b727d03))
  (fp_line (start -5.2451 1.527) (end -5.2451 1.527)
    (stroke (width 0.1) (type solid)) (layer "F.Fab") (tstamp bf438903-3c2c-4a20-94d8-8c4661b821ed))
  (fp_line (start -5.2451 1.673) (end -5.2451 1.673)
    (stroke (width 0.1) (type solid)) (layer "F.Fab") (tstamp 40e66d1c-3ee6-4fb8-9b75-7d1b1967c45d))
  (fp_line (start -5.2451 1.673) (end -5.2451 1.927)
    (stroke (width 0.1) (type solid)) (layer "F.Fab") (tstamp 89c12161-c840-4373-87ec-28d015594080))
  (fp_line (start -5.2451 1.927) (end -5.2451 1.673)
    (stroke (width 0.1) (type solid)) (layer "F.Fab") (tstamp 63ec4dee-5c47-43a0-bd44-acfdb9bfac1c))
  (fp_line (start -5.2451 1.927) (end -5.2451 1.927)
    (stroke (width 0.1) (type solid)) (layer "F.Fab") (tstamp 85352b94-a376-4dc8-a30a-0a1a83de0687))
  (fp_line (start -5.2451 2.073) (end -5.2451 2.073)
    (stroke (width 0.1) (type solid)) (layer "F.Fab") (tstamp 39fe7c7f-96cf-4062-82f1-4163bb88ad13))
  (fp_line (start -5.2451 2.073) (end -5.2451 2.327)
    (stroke (width 0.1) (type solid)) (layer "F.Fab") (tstamp 8c60b3ca-5485-4c5b-a077-4ae1eb8b9fd2))
  (fp_line (start -5.2451 2.327) (end -5.2451 2.073)
    (stroke (width 0.1) (type solid)) (layer "F.Fab") (tstamp ab99f858-7839-4532-abec-121665a2d54a))
  (fp_line (start -5.2451 2.327) (end -5.2451 2.327)
    (stroke (width 0.1) (type solid)) (layer "F.Fab") (tstamp c408133b-eb9c-454e-9bd5-770a773d575e))
  (fp_line (start -5.2451 2.473) (end -5.2451 2.473)
    (stroke (width 0.1) (type solid)) (layer "F.Fab") (tstamp 372260f6-fa4d-4852-8fee-a8144a5dca07))
  (fp_line (start -5.2451 2.473) (end -5.2451 2.727)
    (stroke (width 0.1) (type solid)) (layer "F.Fab") (tstamp 42c11464-6fd2-43ea-8a10-eea2148b62d4))
  (fp_line (start -5.2451 2.727) (end -5.2451 2.473)
    (stroke (width 0.1) (type solid)) (layer "F.Fab") (tstamp 2492e4d3-70ff-45f5-a3de-c67b9378609f))
  (fp_line (start -5.2451 2.727) (end -5.2451 2.727)
    (stroke (width 0.1) (type solid)) (layer "F.Fab") (tstamp 89938f94-32d2-4eb0-8659-beeda680bfa1))
  (fp_line (start -5.2451 3.2512) (end 5.2451 3.2512)
    (stroke (width 0.1) (type solid)) (layer "F.Fab") (tstamp f51b23bb-aee8-4ecc-b25d-9814a60a9ca5))
  (fp_line (start -4.727 -3.2512) (end -4.727 -3.2512)
    (stroke (width 0.1) (type solid)) (layer "F.Fab") (tstamp c40427d9-3df6-4d2b-9a4a-b04c12c96a45))
  (fp_line (start -4.727 -3.2512) (end -4.473 -3.2512)
    (stroke (width 0.1) (type solid)) (layer "F.Fab") (tstamp 8f5d6017-a0d4-4890-b08a-38a92a187a43))
  (fp_line (start -4.726999 3.2512) (end -4.726999 3.2512)
    (stroke (width 0.1) (type solid)) (layer "F.Fab") (tstamp 74257ac3-af32-48de-b910-0daebb0a6d90))
  (fp_line (start -4.726999 3.2512) (end -4.472999 3.2512)
    (stroke (width 0.1) (type solid)) (layer "F.Fab") (tstamp 412422c6-7c5f-4a11-a900-dc286b626135))
  (fp_line (start -4.473 -3.2512) (end -4.727 -3.2512)
    (stroke (width 0.1) (type solid)) (layer "F.Fab") (tstamp 70a12e85-71b1-4ea6-8629-4990eee32ca8))
  (fp_line (start -4.473 -3.2512) (end -4.473 -3.2512)
    (stroke (width 0.1) (type solid)) (layer "F.Fab") (tstamp 01891176-d2e4-48fe-9245-37c01be9dc66))
  (fp_line (start -4.472999 3.2512) (end -4.726999 3.2512)
    (stroke (width 0.1) (type solid)) (layer "F.Fab") (tstamp 4fd64518-3a9a-47c2-98af-89d327e32aa3))
  (fp_line (start -4.472999 3.2512) (end -4.472999 3.2512)
    (stroke (width 0.1) (type solid)) (layer "F.Fab") (tstamp 38bef52b-351f-42a3-8bad-dfc6f41c7676))
  (fp_line (start -4.327 -3.2512) (end -4.327 -3.2512)
    (stroke (width 0.1) (type solid)) (layer "F.Fab") (tstamp f8898a66-024e-4917-b560-a4afbb27d814))
  (fp_line (start -4.327 -3.2512) (end -4.073 -3.2512)
    (stroke (width 0.1) (type solid)) (layer "F.Fab") (tstamp d94fe7a4-7dfc-4a9b-a001-87bab4498115))
  (fp_line (start -4.326999 3.2512) (end -4.326999 3.2512)
    (stroke (width 0.1) (type solid)) (layer "F.Fab") (tstamp 2b087be9-6afa-4d74-bfab-7eda4a6437a7))
  (fp_line (start -4.326999 3.2512) (end -4.072999 3.2512)
    (stroke (width 0.1) (type solid)) (layer "F.Fab") (tstamp b9c4710b-2cbe-4467-a55f-fd32a695884d))
  (fp_line (start -4.073 -3.2512) (end -4.327 -3.2512)
    (stroke (width 0.1) (type solid)) (layer "F.Fab") (tstamp 28de90ea-625a-4312-898c-c483173dd38b))
  (fp_line (start -4.073 -3.2512) (end -4.073 -3.2512)
    (stroke (width 0.1) (type solid)) (layer "F.Fab") (tstamp 13b026e2-c838-4680-8bd5-e335e2997bae))
  (fp_line (start -4.072999 3.2512) (end -4.326999 3.2512)
    (stroke (width 0.1) (type solid)) (layer "F.Fab") (tstamp c526e7e8-4de0-415b-8a84-7d8caedfb054))
  (fp_line (start -4.072999 3.2512) (end -4.072999 3.2512)
    (stroke (width 0.1) (type solid)) (layer "F.Fab") (tstamp a07c8a7b-15f3-4bd5-a616-44e72a2c6b9f))
  (fp_line (start -3.927 -3.2512) (end -3.927 -3.2512)
    (stroke (width 0.1) (type solid)) (layer "F.Fab") (tstamp fd75c11e-c7c3-422e-991b-abdbcdf4990e))
  (fp_line (start -3.927 -3.2512) (end -3.673 -3.2512)
    (stroke (width 0.1) (type solid)) (layer "F.Fab") (tstamp 76ff326d-98db-49b6-a4d3-4de038e771d1))
  (fp_line (start -3.927 3.2512) (end -3.927 3.2512)
    (stroke (width 0.1) (type solid)) (layer "F.Fab") (tstamp 81c4c674-7362-4b0a-b0bd-3ae9f9d166ac))
  (fp_line (start -3.927 3.2512) (end -3.673 3.2512)
    (stroke (width 0.1) (type solid)) (layer "F.Fab") (tstamp 060d3362-0563-47d2-8da4-620d6a76831c))
  (fp_line (start -3.673 -3.2512) (end -3.927 -3.2512)
    (stroke (width 0.1) (type solid)) (layer "F.Fab") (tstamp 37dcecc5-a6e0-4af9-9d5c-73e7a69d1a19))
  (fp_line (start -3.673 -3.2512) (end -3.673 -3.2512)
    (stroke (width 0.1) (type solid)) (layer "F.Fab") (tstamp 108f2f6e-34eb-4297-8da2-27d406d6b3d4))
  (fp_line (start -3.673 3.2512) (end -3.927 3.2512)
    (stroke (width 0.1) (type solid)) (layer "F.Fab") (tstamp acc5bf2d-e371-4344-8f57-3dbfd97a8321))
  (fp_line (start -3.673 3.2512) (end -3.673 3.2512)
    (stroke (width 0.1) (type solid)) (layer "F.Fab") (tstamp 86e847bd-84d0-431f-9a60-fb4f6946f8b3))
  (fp_line (start -3.527 -3.2512) (end -3.527 -3.2512)
    (stroke (width 0.1) (type solid)) (layer "F.Fab") (tstamp 3792e3f1-3944-44ad-8bce-bfbdab7fbddd))
  (fp_line (start -3.527 -3.2512) (end -3.273 -3.2512)
    (stroke (width 0.1) (type solid)) (layer "F.Fab") (tstamp b298697a-8486-4f6a-ba5f-c6a3a4b01ef3))
  (fp_line (start -3.527 3.2512) (end -3.527 3.2512)
    (stroke (width 0.1) (type solid)) (layer "F.Fab") (tstamp b3e0ac27-0dda-46ec-88ee-5bb99ee2c526))
  (fp_line (start -3.527 3.2512) (end -3.273 3.2512)
    (stroke (width 0.1) (type solid)) (layer "F.Fab") (tstamp d12e8071-4a9a-46dc-9cb7-256bee46b825))
  (fp_line (start -3.273 -3.2512) (end -3.527 -3.2512)
    (stroke (width 0.1) (type solid)) (layer "F.Fab") (tstamp 4db43458-7ff5-4b01-807f-7309df12c1ea))
  (fp_line (start -3.273 -3.2512) (end -3.273 -3.2512)
    (stroke (width 0.1) (type solid)) (layer "F.Fab") (tstamp bb4173ec-67c5-4fc5-b2d5-bf9d0ce4b872))
  (fp_line (start -3.273 3.2512) (end -3.527 3.2512)
    (stroke (width 0.1) (type solid)) (layer "F.Fab") (tstamp 99b927fb-ca3c-49fa-8d73-debde6a7fd01))
  (fp_line (start -3.273 3.2512) (end -3.273 3.2512)
    (stroke (width 0.1) (type solid)) (layer "F.Fab") (tstamp fc880e40-909e-43d4-96ba-c65764c9985d))
  (fp_line (start -3.127 -3.2512) (end -3.127 -3.2512)
    (stroke (width 0.1) (type solid)) (layer "F.Fab") (tstamp 49b3e2a5-e4f8-4d14-9e8a-b6553d77bff6))
  (fp_line (start -3.127 -3.2512) (end -2.873 -3.2512)
    (stroke (width 0.1) (type solid)) (layer "F.Fab") (tstamp 04c95355-f29c-4205-baa6-f8d47c826301))
  (fp_line (start -3.127 3.2512) (end -3.127 3.2512)
    (stroke (width 0.1) (type solid)) (layer "F.Fab") (tstamp b1e0a1fb-c74f-47cf-bcd5-dc546faf5b79))
  (fp_line (start -3.127 3.2512) (end -2.873 3.2512)
    (stroke (width 0.1) (type solid)) (layer "F.Fab") (tstamp 47f9ed00-c3c3-47be-9c93-3ac27f45d424))
  (fp_line (start -2.873 -3.2512) (end -3.127 -3.2512)
    (stroke (width 0.1) (type solid)) (layer "F.Fab") (tstamp 4ceec82a-cdb4-4df6-b8ae-e050da983e93))
  (fp_line (start -2.873 -3.2512) (end -2.873 -3.2512)
    (stroke (width 0.1) (type solid)) (layer "F.Fab") (tstamp ebf0743c-6a4a-4776-ae88-d7d65355194c))
  (fp_line (start -2.873 3.2512) (end -3.127 3.2512)
    (stroke (width 0.1) (type solid)) (layer "F.Fab") (tstamp dffd8081-5748-47fb-ad95-c045104d56df))
  (fp_line (start -2.873 3.2512) (end -2.873 3.2512)
    (stroke (width 0.1) (type solid)) (layer "F.Fab") (tstamp af0018a4-061f-47cf-8735-1d0e7928d37f))
  (fp_line (start -2.727 -3.2512) (end -2.727 -3.2512)
    (stroke (width 0.1) (type solid)) (layer "F.Fab") (tstamp 33e7962a-f288-48d8-90ad-8b9b35be7409))
  (fp_line (start -2.727 -3.2512) (end -2.473 -3.2512)
    (stroke (width 0.1) (type solid)) (layer "F.Fab") (tstamp 34b615c6-cb47-454d-8d76-7763a7eda66b))
  (fp_line (start -2.727 3.2512) (end -2.727 3.2512)
    (stroke (width 0.1) (type solid)) (layer "F.Fab") (tstamp 550a0345-24d5-4833-9613-bb7acd3d385c))
  (fp_line (start -2.727 3.2512) (end -2.473 3.2512)
    (stroke (width 0.1) (type solid)) (layer "F.Fab") (tstamp 402a7b80-bde3-4351-9dab-da8114e375e3))
  (fp_line (start -2.473 -3.2512) (end -2.727 -3.2512)
    (stroke (width 0.1) (type solid)) (layer "F.Fab") (tstamp f8a23fa9-fcba-4a30-a85e-b890b6a7843a))
  (fp_line (start -2.473 -3.2512) (end -2.473 -3.2512)
    (stroke (width 0.1) (type solid)) (layer "F.Fab") (tstamp b786956c-f574-490e-a0c2-1f0616ac40ee))
  (fp_line (start -2.473 3.2512) (end -2.727 3.2512)
    (stroke (width 0.1) (type solid)) (layer "F.Fab") (tstamp 804ac471-dbba-4a3c-ba69-73cb8a7b281f))
  (fp_line (start -2.473 3.2512) (end -2.473 3.2512)
    (stroke (width 0.1) (type solid)) (layer "F.Fab") (tstamp cf5e594b-fa75-4263-9f84-e357e990ff32))
  (fp_line (start -2.327 -3.2512) (end -2.327 -3.2512)
    (stroke (width 0.1) (type solid)) (layer "F.Fab") (tstamp 714cafcf-cf35-431c-813c-23976eaf0484))
  (fp_line (start -2.327 -3.2512) (end -2.073 -3.2512)
    (stroke (width 0.1) (type solid)) (layer "F.Fab") (tstamp cb0b34f0-3697-440a-806e-df459ac06cf4))
  (fp_line (start -2.327 3.2512) (end -2.327 3.2512)
    (stroke (width 0.1) (type solid)) (layer "F.Fab") (tstamp 5dd049b1-4b58-4c0e-b253-58a170bcf3ed))
  (fp_line (start -2.327 3.2512) (end -2.073 3.2512)
    (stroke (width 0.1) (type solid)) (layer "F.Fab") (tstamp 31be73c2-f013-4206-a77e-0c81e338dec0))
  (fp_line (start -2.073 -3.2512) (end -2.327 -3.2512)
    (stroke (width 0.1) (type solid)) (layer "F.Fab") (tstamp 5703ff74-a7bb-4bff-be4f-be5311c27e6b))
  (fp_line (start -2.073 -3.2512) (end -2.073 -3.2512)
    (stroke (width 0.1) (type solid)) (layer "F.Fab") (tstamp 9e2d5760-43a0-4f5c-a5ff-83de9ce1d432))
  (fp_line (start -2.073 3.2512) (end -2.327 3.2512)
    (stroke (width 0.1) (type solid)) (layer "F.Fab") (tstamp 25362131-a3e0-419c-9a5a-917f2ce59e6a))
  (fp_line (start -2.073 3.2512) (end -2.073 3.2512)
    (stroke (width 0.1) (type solid)) (layer "F.Fab") (tstamp b7bed154-7f87-4a19-b9d2-64ecea902a0e))
  (fp_line (start -1.927 -3.2512) (end -1.927 -3.2512)
    (stroke (width 0.1) (type solid)) (layer "F.Fab") (tstamp c7a64fbc-f5d6-4e4a-babc-ef356c0a51b8))
  (fp_line (start -1.927 -3.2512) (end -1.673 -3.2512)
    (stroke (width 0.1) (type solid)) (layer "F.Fab") (tstamp 953e1bc8-9cef-4e3c-9569-3bcbff866e19))
  (fp_line (start -1.927 3.2512) (end -1.927 3.2512)
    (stroke (width 0.1) (type solid)) (layer "F.Fab") (tstamp 3f2d827d-ad42-4215-b468-90087825bfd1))
  (fp_line (start -1.927 3.2512) (end -1.673 3.2512)
    (stroke (width 0.1) (type solid)) (layer "F.Fab") (tstamp 7c433f97-04d1-456e-92cd-3c974fe1472d))
  (fp_line (start -1.673 -3.2512) (end -1.927 -3.2512)
    (stroke (width 0.1) (type solid)) (layer "F.Fab") (tstamp 9bb4679b-083a-446f-a36c-6de80cae92af))
  (fp_line (start -1.673 -3.2512) (end -1.673 -3.2512)
    (stroke (width 0.1) (type solid)) (layer "F.Fab") (tstamp ab576f1e-9206-4eb7-8b30-361d85695151))
  (fp_line (start -1.673 3.2512) (end -1.927 3.2512)
    (stroke (width 0.1) (type solid)) (layer "F.Fab") (tstamp e07f5ad0-e408-4b57-ae48-19853dcd2ee7))
  (fp_line (start -1.673 3.2512) (end -1.673 3.2512)
    (stroke (width 0.1) (type solid)) (layer "F.Fab") (tstamp 48f7ca0a-4486-41f4-95ac-b4a9d036f9d5))
  (fp_line (start -1.527 -3.2512) (end -1.527 -3.2512)
    (stroke (width 0.1) (type solid)) (layer "F.Fab") (tstamp fc88acea-b767-4c9e-964a-bad407c88dd4))
  (fp_line (start -1.527 -3.2512) (end -1.273 -3.2512)
    (stroke (width 0.1) (type solid)) (layer "F.Fab") (tstamp a8318876-c270-426f-a2be-f55441d045f6))
  (fp_line (start -1.527 3.2512) (end -1.527 3.2512)
    (stroke (width 0.1) (type solid)) (layer "F.Fab") (tstamp 48a6f028-e4f2-4bf2-aa54-8dc646f2bd63))
  (fp_line (start -1.527 3.2512) (end -1.273 3.2512)
    (stroke (width 0.1) (type solid)) (layer "F.Fab") (tstamp 7a36e037-35f8-49c6-86b9-2b707734d039))
  (fp_line (start -1.273 -3.2512) (end -1.527 -3.2512)
    (stroke (width 0.1) (type solid)) (layer "F.Fab") (tstamp 48055e96-0500-420b-bf71-5b8e995f3b7e))
  (fp_line (start -1.273 -3.2512) (end -1.273 -3.2512)
    (stroke (width 0.1) (type solid)) (layer "F.Fab") (tstamp 4e5f6bf1-e5b6-4d20-a028-1f0f57a4b95c))
  (fp_line (start -1.273 3.2512) (end -1.527 3.2512)
    (stroke (width 0.1) (type solid)) (layer "F.Fab") (tstamp 1538cecb-9613-4444-85d6-d68c6ae936cc))
  (fp_line (start -1.273 3.2512) (end -1.273 3.2512)
    (stroke (width 0.1) (type solid)) (layer "F.Fab") (tstamp b68f07a4-b119-4a5e-b554-e8fb78cf4cc7))
  (fp_line (start -1.127 -3.2512) (end -1.127 -3.2512)
    (stroke (width 0.1) (type solid)) (layer "F.Fab") (tstamp b4547fc0-2cc7-4a29-8d3b-a0aebbee8f38))
  (fp_line (start -1.127 -3.2512) (end -0.873 -3.2512)
    (stroke (width 0.1) (type solid)) (layer "F.Fab") (tstamp b0746f9f-681c-4158-8d56-4656425928e2))
  (fp_line (start -1.127 3.2512) (end -1.127 3.2512)
    (stroke (width 0.1) (type solid)) (layer "F.Fab") (tstamp 5df3f6e2-9c37-488f-9f39-a4e00d3a6f3a))
  (fp_line (start -1.127 3.2512) (end -0.873 3.2512)
    (stroke (width 0.1) (type solid)) (layer "F.Fab") (tstamp e8a9f8a2-67fa-4741-b4ac-e4f09da74040))
  (fp_line (start -0.873 -3.2512) (end -1.127 -3.2512)
    (stroke (width 0.1) (type solid)) (layer "F.Fab") (tstamp bdfaa3a2-1d24-4303-a3a9-96c8024b35ff))
  (fp_line (start -0.873 -3.2512) (end -0.873 -3.2512)
    (stroke (width 0.1) (type solid)) (layer "F.Fab") (tstamp 3c96ac6b-c7de-4daf-95bc-05d8aa9e8d12))
  (fp_line (start -0.873 3.2512) (end -1.127 3.2512)
    (stroke (width 0.1) (type solid)) (layer "F.Fab") (tstamp 8d15f15b-5bea-4a02-999e-38d3ab5998d5))
  (fp_line (start -0.873 3.2512) (end -0.873 3.2512)
    (stroke (width 0.1) (type solid)) (layer "F.Fab") (tstamp b2e572d1-934f-47fb-9b41-a83e6c76b6b1))
  (fp_line (start -0.727 -3.2512) (end -0.727 -3.2512)
    (stroke (width 0.1) (type solid)) (layer "F.Fab") (tstamp e4fedbef-5399-4748-89d7-3b1667fdbded))
  (fp_line (start -0.727 -3.2512) (end -0.473 -3.2512)
    (stroke (width 0.1) (type solid)) (layer "F.Fab") (tstamp 5e1b15d7-5c1a-4d32-9a91-d1b38d47cd9b))
  (fp_line (start -0.727 3.2512) (end -0.727 3.2512)
    (stroke (width 0.1) (type solid)) (layer "F.Fab") (tstamp 43457227-5d30-46a1-85de-7d8797c86856))
  (fp_line (start -0.727 3.2512) (end -0.473 3.2512)
    (stroke (width 0.1) (type solid)) (layer "F.Fab") (tstamp d8c62eef-3702-4b95-817d-077292e61c55))
  (fp_line (start -0.473 -3.2512) (end -0.727 -3.2512)
    (stroke (width 0.1) (type solid)) (layer "F.Fab") (tstamp 42d071f0-2e4a-48b7-a738-63a2db07439b))
  (fp_line (start -0.473 -3.2512) (end -0.473 -3.2512)
    (stroke (width 0.1) (type solid)) (layer "F.Fab") (tstamp deb75f91-f8d4-47c8-ac8f-4d762866f26e))
  (fp_line (start -0.473 3.2512) (end -0.727 3.2512)
    (stroke (width 0.1) (type solid)) (layer "F.Fab") (tstamp 439af221-4bc0-416f-842d-060a14fb10c6))
  (fp_line (start -0.473 3.2512) (end -0.473 3.2512)
    (stroke (width 0.1) (type solid)) (layer "F.Fab") (tstamp 5d3a38a7-57c6-4e4e-9528-69c6d7ac0597))
  (fp_line (start -0.327 -3.2512) (end -0.327 -3.2512)
    (stroke (width 0.1) (type solid)) (layer "F.Fab") (tstamp f75aff13-8e15-4979-9dcc-14141ca0efef))
  (fp_line (start -0.327 -3.2512) (end -0.073 -3.2512)
    (stroke (width 0.1) (type solid)) (layer "F.Fab") (tstamp 11b629b4-7c80-4f9a-8b0a-2fdd022b78bf))
  (fp_line (start -0.327 3.2512) (end -0.327 3.2512)
    (stroke (width 0.1) (type solid)) (layer "F.Fab") (tstamp a844523f-fb50-4cec-8182-36ba4fb13792))
  (fp_line (start -0.327 3.2512) (end -0.073 3.2512)
    (stroke (width 0.1) (type solid)) (layer "F.Fab") (tstamp f8d07c3d-a78c-47b1-9301-80f2dbb27126))
  (fp_line (start -0.073 -3.2512) (end -0.327 -3.2512)
    (stroke (width 0.1) (type solid)) (layer "F.Fab") (tstamp 21f96fdb-cbfb-4b3a-b9d6-a64094c36840))
  (fp_line (start -0.073 -3.2512) (end -0.073 -3.2512)
    (stroke (width 0.1) (type solid)) (layer "F.Fab") (tstamp d5c5a65a-f9e8-4b08-922c-6ea27dde1af8))
  (fp_line (start -0.073 3.2512) (end -0.327 3.2512)
    (stroke (width 0.1) (type solid)) (layer "F.Fab") (tstamp a53fa068-4dc8-4db5-9402-dabdf2a08902))
  (fp_line (start -0.073 3.2512) (end -0.073 3.2512)
    (stroke (width 0.1) (type solid)) (layer "F.Fab") (tstamp 99b7c376-d4fc-4f76-8e93-a89747d2fd91))
  (fp_line (start 0.073 -3.2512) (end 0.073 -3.2512)
    (stroke (width 0.1) (type solid)) (layer "F.Fab") (tstamp bcdb9d33-a066-4f98-96e5-05dad5d83d28))
  (fp_line (start 0.073 -3.2512) (end 0.327 -3.2512)
    (stroke (width 0.1) (type solid)) (layer "F.Fab") (tstamp f8df5b86-4ce9-4f7e-9dfd-3b4ee045b06f))
  (fp_line (start 0.073 3.2512) (end 0.073 3.2512)
    (stroke (width 0.1) (type solid)) (layer "F.Fab") (tstamp 31a31551-f739-40ad-a149-d1330abc854d))
  (fp_line (start 0.073 3.2512) (end 0.327 3.2512)
    (stroke (width 0.1) (type solid)) (layer "F.Fab") (tstamp 2caa0297-cc3a-4942-bf94-fb49e50c8653))
  (fp_line (start 0.327 -3.2512) (end 0.073 -3.2512)
    (stroke (width 0.1) (type solid)) (layer "F.Fab") (tstamp 2ecf9de0-8e2f-41be-b07c-6a023d417c16))
  (fp_line (start 0.327 -3.2512) (end 0.327 -3.2512)
    (stroke (width 0.1) (type solid)) (layer "F.Fab") (tstamp 962cf70f-195e-46e6-8974-0e212422bd24))
  (fp_line (start 0.327 3.2512) (end 0.073 3.2512)
    (stroke (width 0.1) (type solid)) (layer "F.Fab") (tstamp 319bcbf4-94e7-41e0-9b23-5a9c38b14612))
  (fp_line (start 0.327 3.2512) (end 0.327 3.2512)
    (stroke (width 0.1) (type solid)) (layer "F.Fab") (tstamp d7c569ba-9e06-4a43-bcab-527293be7947))
  (fp_line (start 0.473 -3.2512) (end 0.473 -3.2512)
    (stroke (width 0.1) (type solid)) (layer "F.Fab") (tstamp d23d3567-1d51-4953-a86d-d0d50365056b))
  (fp_line (start 0.473 -3.2512) (end 0.727 -3.2512)
    (stroke (width 0.1) (type solid)) (layer "F.Fab") (tstamp 326d97c8-f84d-4138-9edb-5609ea3cba25))
  (fp_line (start 0.473 3.2512) (end 0.473 3.2512)
    (stroke (width 0.1) (type solid)) (layer "F.Fab") (tstamp b816ebe0-8edc-41f8-baf4-16ca38668ede))
  (fp_line (start 0.473 3.2512) (end 0.727 3.2512)
    (stroke (width 0.1) (type solid)) (layer "F.Fab") (tstamp f6edf9e9-de4b-48c9-9071-bf965d5c79ac))
  (fp_line (start 0.727 -3.2512) (end 0.473 -3.2512)
    (stroke (width 0.1) (type solid)) (layer "F.Fab") (tstamp 30f10c06-9bb1-4cd3-93c4-90cdf206121f))
  (fp_line (start 0.727 -3.2512) (end 0.727 -3.2512)
    (stroke (width 0.1) (type solid)) (layer "F.Fab") (tstamp be46fc25-b77d-4a35-b4f6-c9f9190ed97e))
  (fp_line (start 0.727 3.2512) (end 0.473 3.2512)
    (stroke (width 0.1) (type solid)) (layer "F.Fab") (tstamp e6547f54-d22f-4218-b92e-d6cc63920200))
  (fp_line (start 0.727 3.2512) (end 0.727 3.2512)
    (stroke (width 0.1) (type solid)) (layer "F.Fab") (tstamp cbd4e642-e719-4ac7-aa29-560dd1f6fc1a))
  (fp_line (start 0.873 -3.2512) (end 0.873 -3.2512)
    (stroke (width 0.1) (type solid)) (layer "F.Fab") (tstamp 767e1a2f-3670-4757-8cc7-bb8682538e90))
  (fp_line (start 0.873 -3.2512) (end 1.127 -3.2512)
    (stroke (width 0.1) (type solid)) (layer "F.Fab") (tstamp 9610f51c-1841-406b-9662-7da35e24c377))
  (fp_line (start 0.873 3.2512) (end 0.873 3.2512)
    (stroke (width 0.1) (type solid)) (layer "F.Fab") (tstamp 0cb6a28f-539c-4d1a-b640-631748d935bd))
  (fp_line (start 0.873 3.2512) (end 1.127 3.2512)
    (stroke (width 0.1) (type solid)) (layer "F.Fab") (tstamp 9e85db58-9d49-46ca-a0e7-14e4625dacef))
  (fp_line (start 1.127 -3.2512) (end 0.873 -3.2512)
    (stroke (width 0.1) (type solid)) (layer "F.Fab") (tstamp 74f91531-39a8-43a3-bb6e-a803da1214a8))
  (fp_line (start 1.127 -3.2512) (end 1.127 -3.2512)
    (stroke (width 0.1) (type solid)) (layer "F.Fab") (tstamp 9e529e62-5fa9-4e89-8687-6c7abe230b0f))
  (fp_line (start 1.127 3.2512) (end 0.873 3.2512)
    (stroke (width 0.1) (type solid)) (layer "F.Fab") (tstamp 68b7271e-5139-4ae6-9b9d-93342e8ef50a))
  (fp_line (start 1.127 3.2512) (end 1.127 3.2512)
    (stroke (width 0.1) (type solid)) (layer "F.Fab") (tstamp 42165024-5b17-4f41-94b8-8fd112768a4e))
  (fp_line (start 1.273 -3.2512) (end 1.273 -3.2512)
    (stroke (width 0.1) (type solid)) (layer "F.Fab") (tstamp 5a7dfe8f-a0eb-47c6-ad6f-0850b74cf7d7))
  (fp_line (start 1.273 -3.2512) (end 1.527 -3.2512)
    (stroke (width 0.1) (type solid)) (layer "F.Fab") (tstamp f0917592-17d3-42f9-a262-fe07da8ac7d4))
  (fp_line (start 1.273 3.2512) (end 1.273 3.2512)
    (stroke (width 0.1) (type solid)) (layer "F.Fab") (tstamp 0d8a1d59-c55b-4872-b700-c49cf21f10d2))
  (fp_line (start 1.273 3.2512) (end 1.527 3.2512)
    (stroke (width 0.1) (type solid)) (layer "F.Fab") (tstamp e2b2ab0b-184f-496e-95f0-d45af38a298d))
  (fp_line (start 1.527 -3.2512) (end 1.273 -3.2512)
    (stroke (width 0.1) (type solid)) (layer "F.Fab") (tstamp 8ffee67a-fba7-4eb5-a973-1fa892a2e15b))
  (fp_line (start 1.527 -3.2512) (end 1.527 -3.2512)
    (stroke (width 0.1) (type solid)) (layer "F.Fab") (tstamp 494222b6-15ee-4517-a9d0-a55783282393))
  (fp_line (start 1.527 3.2512) (end 1.273 3.2512)
    (stroke (width 0.1) (type solid)) (layer "F.Fab") (tstamp 6d41feff-e403-4ef9-b382-dd5ae4a5e9ff))
  (fp_line (start 1.527 3.2512) (end 1.527 3.2512)
    (stroke (width 0.1) (type solid)) (layer "F.Fab") (tstamp 2a58b576-4981-439b-b49e-d4678a8c13b4))
  (fp_line (start 1.673 -3.2512) (end 1.673 -3.2512)
    (stroke (width 0.1) (type solid)) (layer "F.Fab") (tstamp 89294d4b-cb4f-49d7-973a-410aad7f69fe))
  (fp_line (start 1.673 -3.2512) (end 1.927 -3.2512)
    (stroke (width 0.1) (type solid)) (layer "F.Fab") (tstamp 3dd71ff5-2a68-4100-8f4c-22c28434f8f8))
  (fp_line (start 1.673 3.2512) (end 1.673 3.2512)
    (stroke (width 0.1) (type solid)) (layer "F.Fab") (tstamp a86d95eb-c95d-4ef2-9336-7cd030089b05))
  (fp_line (start 1.673 3.2512) (end 1.927 3.2512)
    (stroke (width 0.1) (type solid)) (layer "F.Fab") (tstamp f48771bd-ad2f-4fe5-aa84-21b98b968fea))
  (fp_line (start 1.927 -3.2512) (end 1.673 -3.2512)
    (stroke (width 0.1) (type solid)) (layer "F.Fab") (tstamp a33ff381-31f9-4295-80f9-ea6ddd66abc0))
  (fp_line (start 1.927 -3.2512) (end 1.927 -3.2512)
    (stroke (width 0.1) (type solid)) (layer "F.Fab") (tstamp adfb5226-fc91-47d9-abd3-140538dfaf84))
  (fp_line (start 1.927 3.2512) (end 1.673 3.2512)
    (stroke (width 0.1) (type solid)) (layer "F.Fab") (tstamp 41840ccc-c4b4-416e-a747-d86cc0cf0083))
  (fp_line (start 1.927 3.2512) (end 1.927 3.2512)
    (stroke (width 0.1) (type solid)) (layer "F.Fab") (tstamp 1959bc8e-8f39-4ee1-8b2e-69f6998d3b76))
  (fp_line (start 2.073 -3.2512) (end 2.073 -3.2512)
    (stroke (width 0.1) (type solid)) (layer "F.Fab") (tstamp 0b2bce5e-95ba-4c47-a4ce-9cc97f29566b))
  (fp_line (start 2.073 -3.2512) (end 2.327 -3.2512)
    (stroke (width 0.1) (type solid)) (layer "F.Fab") (tstamp ca27925f-c6dc-4077-9e92-6318ae53a367))
  (fp_line (start 2.073 3.2512) (end 2.073 3.2512)
    (stroke (width 0.1) (type solid)) (layer "F.Fab") (tstamp 09b0732b-ba12-4c10-ab7b-6bd868c7608b))
  (fp_line (start 2.073 3.2512) (end 2.327 3.2512)
    (stroke (width 0.1) (type solid)) (layer "F.Fab") (tstamp 018bedae-7242-4155-9008-0b307979afbd))
  (fp_line (start 2.327 -3.2512) (end 2.073 -3.2512)
    (stroke (width 0.1) (type solid)) (layer "F.Fab") (tstamp 554904d8-2195-463a-8441-9b352a2f18ea))
  (fp_line (start 2.327 -3.2512) (end 2.327 -3.2512)
    (stroke (width 0.1) (type solid)) (layer "F.Fab") (tstamp 7f4605a2-50e8-4a03-9424-c7cce8c0404f))
  (fp_line (start 2.327 3.2512) (end 2.073 3.2512)
    (stroke (width 0.1) (type solid)) (layer "F.Fab") (tstamp 5252e2a7-6373-4ff2-b23d-defac7f41b0b))
  (fp_line (start 2.327 3.2512) (end 2.327 3.2512)
    (stroke (width 0.1) (type solid)) (layer "F.Fab") (tstamp 8de244e1-0dea-456a-b501-0356a90bf2b1))
  (fp_line (start 2.473 -3.2512) (end 2.473 -3.2512)
    (stroke (width 0.1) (type solid)) (layer "F.Fab") (tstamp dd7b2f70-c9f9-4414-a318-1e6e6cb5ee2f))
  (fp_line (start 2.473 -3.2512) (end 2.727 -3.2512)
    (stroke (width 0.1) (type solid)) (layer "F.Fab") (tstamp feeb0122-68fa-4d77-99e0-138d1837861c))
  (fp_line (start 2.473 3.2512) (end 2.473 3.2512)
    (stroke (width 0.1) (type solid)) (layer "F.Fab") (tstamp 1cf17134-b7a1-4555-b8b4-8117f86f549a))
  (fp_line (start 2.473 3.2512) (end 2.727 3.2512)
    (stroke (width 0.1) (type solid)) (layer "F.Fab") (tstamp 96722586-0055-4aa5-bb23-b06b0401d48c))
  (fp_line (start 2.727 -3.2512) (end 2.473 -3.2512)
    (stroke (width 0.1) (type solid)) (layer "F.Fab") (tstamp 42b522bc-ceca-4be5-b5d4-a44fbabf2b94))
  (fp_line (start 2.727 -3.2512) (end 2.727 -3.2512)
    (stroke (width 0.1) (type solid)) (layer "F.Fab") (tstamp f03658fd-ce13-49ee-b530-07e2034bab3a))
  (fp_line (start 2.727 3.2512) (end 2.473 3.2512)
    (stroke (width 0.1) (type solid)) (layer "F.Fab") (tstamp f5664648-6b6c-4e85-afc7-b49f84cadc61))
  (fp_line (start 2.727 3.2512) (end 2.727 3.2512)
    (stroke (width 0.1) (type solid)) (layer "F.Fab") (tstamp b38e55c8-baba-4601-9639-ad2db48a16b2))
  (fp_line (start 2.873 -3.2512) (end 2.873 -3.2512)
    (stroke (width 0.1) (type solid)) (layer "F.Fab") (tstamp 7b3328ff-4a4d-40ab-8593-da5e2af7922a))
  (fp_line (start 2.873 -3.2512) (end 3.127 -3.2512)
    (stroke (width 0.1) (type solid)) (layer "F.Fab") (tstamp 61f7ef66-3fd2-465e-b067-f4a90c9a96eb))
  (fp_line (start 2.873 3.2512) (end 2.873 3.2512)
    (stroke (width 0.1) (type solid)) (layer "F.Fab") (tstamp f1707619-beea-4d25-9775-518eb429ccb9))
  (fp_line (start 2.873 3.2512) (end 3.127 3.2512)
    (stroke (width 0.1) (type solid)) (layer "F.Fab") (tstamp 6c8044ed-f82d-4cb3-8911-052be827f7fb))
  (fp_line (start 3.127 -3.2512) (end 2.873 -3.2512)
    (stroke (width 0.1) (type solid)) (layer "F.Fab") (tstamp bdd689d1-a0c1-4759-ab26-01b95afb0ab6))
  (fp_line (start 3.127 -3.2512) (end 3.127 -3.2512)
    (stroke (width 0.1) (type solid)) (layer "F.Fab") (tstamp 8d43de69-4e67-49b8-b4e7-e3cae22f550e))
  (fp_line (start 3.127 3.2512) (end 2.873 3.2512)
    (stroke (width 0.1) (type solid)) (layer "F.Fab") (tstamp 38bd097c-a676-4f1b-9403-f9784cd0d0b3))
  (fp_line (start 3.127 3.2512) (end 3.127 3.2512)
    (stroke (width 0.1) (type solid)) (layer "F.Fab") (tstamp c18e986d-a01e-49b3-8491-e53220ac4668))
  (fp_line (start 3.273 -3.2512) (end 3.273 -3.2512)
    (stroke (width 0.1) (type solid)) (layer "F.Fab") (tstamp cf2caa40-4d46-4d13-bcc0-fc12543ae771))
  (fp_line (start 3.273 -3.2512) (end 3.527 -3.2512)
    (stroke (width 0.1) (type solid)) (layer "F.Fab") (tstamp ce9b51f4-815d-4d5b-8918-39817d705ab2))
  (fp_line (start 3.273 3.2512) (end 3.273 3.2512)
    (stroke (width 0.1) (type solid)) (layer "F.Fab") (tstamp 68270a4f-de2e-4313-a896-00aa28af6073))
  (fp_line (start 3.273 3.2512) (end 3.527 3.2512)
    (stroke (width 0.1) (type solid)) (layer "F.Fab") (tstamp 36e0ac8f-e603-4a96-b0d6-dbaad414a3b9))
  (fp_line (start 3.527 -3.2512) (end 3.273 -3.2512)
    (stroke (width 0.1) (type solid)) (layer "F.Fab") (tstamp e8a61cd9-edb7-470a-9eb9-38f7cd9804de))
  (fp_line (start 3.527 -3.2512) (end 3.527 -3.2512)
    (stroke (width 0.1) (type solid)) (layer "F.Fab") (tstamp 5926b134-163f-4891-8a15-d995f11b27c6))
  (fp_line (start 3.527 3.2512) (end 3.273 3.2512)
    (stroke (width 0.1) (type solid)) (layer "F.Fab") (tstamp 59a8bef9-649d-46d1-93b7-78daadc5cba3))
  (fp_line (start 3.527 3.2512) (end 3.527 3.2512)
    (stroke (width 0.1) (type solid)) (layer "F.Fab") (tstamp 15af5b79-7783-4e6f-86b6-6fff4a8552c2))
  (fp_line (start 3.673 -3.2512) (end 3.673 -3.2512)
    (stroke (width 0.1) (type solid)) (layer "F.Fab") (tstamp 719c6d5b-6d4e-4b29-aa62-444fa66e263e))
  (fp_line (start 3.673 -3.2512) (end 3.927 -3.2512)
    (stroke (width 0.1) (type solid)) (layer "F.Fab") (tstamp b66ef304-d90f-4884-8a39-0e7597b1e81e))
  (fp_line (start 3.673 3.2512) (end 3.673 3.2512)
    (stroke (width 0.1) (type solid)) (layer "F.Fab") (tstamp 56173784-10b7-4bc9-a9b4-38515166b854))
  (fp_line (start 3.673 3.2512) (end 3.927 3.2512)
    (stroke (width 0.1) (type solid)) (layer "F.Fab") (tstamp 97113553-9366-410a-af7b-1b487764aac5))
  (fp_line (start 3.927 -3.2512) (end 3.673 -3.2512)
    (stroke (width 0.1) (type solid)) (layer "F.Fab") (tstamp 9b012e92-0642-4213-8842-65a037cff651))
  (fp_line (start 3.927 -3.2512) (end 3.927 -3.2512)
    (stroke (width 0.1) (type solid)) (layer "F.Fab") (tstamp 20e8f3c0-2c5f-4f41-a21a-b0d69a535cfd))
  (fp_line (start 3.927 3.2512) (end 3.673 3.2512)
    (stroke (width 0.1) (type solid)) (layer "F.Fab") (tstamp 037d766f-5478-40fd-86c2-5fbf83c198fb))
  (fp_line (start 3.927 3.2512) (end 3.927 3.2512)
    (stroke (width 0.1) (type solid)) (layer "F.Fab") (tstamp 9c9315da-d97c-4ab4-905c-b28d0c83af21))
  (fp_line (start 4.072999 -3.2512) (end 4.072999 -3.2512)
    (stroke (width 0.1) (type solid)) (layer "F.Fab") (tstamp be158f5d-dda6-41a8-b4ee-6d98565d0c72))
  (fp_line (start 4.072999 -3.2512) (end 4.326999 -3.2512)
    (stroke (width 0.1) (type solid)) (layer "F.Fab") (tstamp 48e4132a-61a7-4115-aa50-31606afd3eda))
  (fp_line (start 4.073 3.2512) (end 4.073 3.2512)
    (stroke (width 0.1) (type solid)) (layer "F.Fab") (tstamp 4083382f-296f-4c41-9574-9f5d9f80352d))
  (fp_line (start 4.073 3.2512) (end 4.327 3.2512)
    (stroke (width 0.1) (type solid)) (layer "F.Fab") (tstamp 9791cd06-446f-43b7-b3ea-aad406bd893b))
  (fp_line (start 4.326999 -3.2512) (end 4.072999 -3.2512)
    (stroke (width 0.1) (type solid)) (layer "F.Fab") (tstamp 5e2b2314-589f-443c-be28-0a5e6be1be8d))
  (fp_line (start 4.326999 -3.2512) (end 4.326999 -3.2512)
    (stroke (width 0.1) (type solid)) (layer "F.Fab") (tstamp 1bd85803-367a-4e87-bb72-e73345def7fd))
  (fp_line (start 4.327 3.2512) (end 4.073 3.2512)
    (stroke (width 0.1) (type solid)) (layer "F.Fab") (tstamp 956891b1-f224-452b-ae5c-efebeede156a))
  (fp_line (start 4.327 3.2512) (end 4.327 3.2512)
    (stroke (width 0.1) (type solid)) (layer "F.Fab") (tstamp 43551165-bf70-48fe-a741-63b7b015dce1))
  (fp_line (start 4.472999 -3.2512) (end 4.472999 -3.2512)
    (stroke (width 0.1) (type solid)) (layer "F.Fab") (tstamp 17900d76-a8ee-4020-8221-262658b184ca))
  (fp_line (start 4.472999 -3.2512) (end 4.726999 -3.2512)
    (stroke (width 0.1) (type solid)) (layer "F.Fab") (tstamp 79234fb2-60fc-4cd1-9d47-11831c8e498a))
  (fp_line (start 4.473 3.2512) (end 4.473 3.2512)
    (stroke (width 0.1) (type solid)) (layer "F.Fab") (tstamp d4f99e08-495d-4f5e-9d57-9fa9e57428e4))
  (fp_line (start 4.473 3.2512) (end 4.727 3.2512)
    (stroke (width 0.1) (type solid)) (layer "F.Fab") (tstamp fa73c0a4-5267-40b0-bcd6-6cd66deb59da))
  (fp_line (start 4.726999 -3.2512) (end 4.472999 -3.2512)
    (stroke (width 0.1) (type solid)) (layer "F.Fab") (tstamp c17ad552-49bf-4fa3-a2be-ff8096001998))
  (fp_line (start 4.726999 -3.2512) (end 4.726999 -3.2512)
    (stroke (width 0.1) (type solid)) (layer "F.Fab") (tstamp 44f1e7f7-6f8d-49a2-9478-c7a81fc028bd))
  (fp_line (start 4.727 3.2512) (end 4.473 3.2512)
    (stroke (width 0.1) (type solid)) (layer "F.Fab") (tstamp b95ae4c0-6141-4ea4-a94d-a382f36c3c3d))
  (fp_line (start 4.727 3.2512) (end 4.727 3.2512)
    (stroke (width 0.1) (type solid)) (layer "F.Fab") (tstamp 43e4120b-653e-4e6e-a67d-923f0816122d))
  (fp_line (start 5.2451 -3.2512) (end -5.2451 -3.2512)
    (stroke (width 0.1) (type solid)) (layer "F.Fab") (tstamp 0bacedd5-40e1-494e-a138-df9545916004))
  (fp_line (start 5.2451 -2.727) (end 5.2451 -2.727)
    (stroke (width 0.1) (type solid)) (layer "F.Fab") (tstamp 5309c701-618f-414e-86b7-17497c73721a))
  (fp_line (start 5.2451 -2.727) (end 5.2451 -2.473)
    (stroke (width 0.1) (type solid)) (layer "F.Fab") (tstamp 8aac1e94-ea72-494e-87c1-a20175401b8e))
  (fp_line (start 5.2451 -2.473) (end 5.2451 -2.727)
    (stroke (width 0.1) (type solid)) (layer "F.Fab") (tstamp b057c445-3a3a-44f2-9403-5356bad6c13d))
  (fp_line (start 5.2451 -2.473) (end 5.2451 -2.473)
    (stroke (width 0.1) (type solid)) (layer "F.Fab") (tstamp f746bb22-5717-4abe-8b44-5b82b6445779))
  (fp_line (start 5.2451 -2.327) (end 5.2451 -2.327)
    (stroke (width 0.1) (type solid)) (layer "F.Fab") (tstamp dcdd1144-24f5-4550-9745-6f3097546a68))
  (fp_line (start 5.2451 -2.327) (end 5.2451 -2.073)
    (stroke (width 0.1) (type solid)) (layer "F.Fab") (tstamp 1396f181-f5fd-4cff-87fe-a7356cf6c3db))
  (fp_line (start 5.2451 -2.073) (end 5.2451 -2.327)
    (stroke (width 0.1) (type solid)) (layer "F.Fab") (tstamp 4710f051-7c14-40a9-bb1d-8978ed0e395d))
  (fp_line (start 5.2451 -2.073) (end 5.2451 -2.073)
    (stroke (width 0.1) (type solid)) (layer "F.Fab") (tstamp a92d9f4a-6b9a-40d3-8a1f-70baeed225ce))
  (fp_line (start 5.2451 -1.927) (end 5.2451 -1.927)
    (stroke (width 0.1) (type solid)) (layer "F.Fab") (tstamp 93b46a79-be76-4259-a522-952eee173f94))
  (fp_line (start 5.2451 -1.927) (end 5.2451 -1.673)
    (stroke (width 0.1) (type solid)) (layer "F.Fab") (tstamp abb6ceec-103b-4d73-9d10-c594cf445a74))
  (fp_line (start 5.2451 -1.673) (end 5.2451 -1.927)
    (stroke (width 0.1) (type solid)) (layer "F.Fab") (tstamp c105420a-c811-4f5a-be7e-b837a7206b91))
  (fp_line (start 5.2451 -1.673) (end 5.2451 -1.673)
    (stroke (width 0.1) (type solid)) (layer "F.Fab") (tstamp ef10fadd-b74a-4b65-944a-09cb4529f3d8))
  (fp_line (start 5.2451 -1.527) (end 5.2451 -1.527)
    (stroke (width 0.1) (type solid)) (layer "F.Fab") (tstamp 43f23e94-9c1d-4b77-9f06-1fea280d36b2))
  (fp_line (start 5.2451 -1.527) (end 5.2451 -1.273)
    (stroke (width 0.1) (type solid)) (layer "F.Fab") (tstamp 5cee05e0-0c26-4e31-88d6-e6ab5ddf2659))
  (fp_line (start 5.2451 -1.273) (end 5.2451 -1.527)
    (stroke (width 0.1) (type solid)) (layer "F.Fab") (tstamp 87280ba3-04d6-4041-b877-0940de51b605))
  (fp_line (start 5.2451 -1.273) (end 5.2451 -1.273)
    (stroke (width 0.1) (type solid)) (layer "F.Fab") (tstamp 23c62e58-053d-4771-8784-a58cd41dc591))
  (fp_line (start 5.2451 -1.127) (end 5.2451 -1.127)
    (stroke (width 0.1) (type solid)) (layer "F.Fab") (tstamp e7ef439f-a72a-4601-b728-6aa80605ea8f))
  (fp_line (start 5.2451 -1.127) (end 5.2451 -0.873)
    (stroke (width 0.1) (type solid)) (layer "F.Fab") (tstamp 6d0db66b-b37f-423c-b5f8-1287dfd8be59))
  (fp_line (start 5.2451 -0.873) (end 5.2451 -1.127)
    (stroke (width 0.1) (type solid)) (layer "F.Fab") (tstamp d29e7397-0680-41d1-81a2-b10cc4a57b41))
  (fp_line (start 5.2451 -0.873) (end 5.2451 -0.873)
    (stroke (width 0.1) (type solid)) (layer "F.Fab") (tstamp 061940e3-f08d-434a-9d11-78e5dd5b9b75))
  (fp_line (start 5.2451 -0.727) (end 5.2451 -0.727)
    (stroke (width 0.1) (type solid)) (layer "F.Fab") (tstamp bb4bbe2f-3850-4dec-9ed2-76b5c727f2c0))
  (fp_line (start 5.2451 -0.727) (end 5.2451 -0.473)
    (stroke (width 0.1) (type solid)) (layer "F.Fab") (tstamp 7427a33e-3a21-4b0e-b6d2-0425efbfc785))
  (fp_line (start 5.2451 -0.473) (end 5.2451 -0.727)
    (stroke (width 0.1) (type solid)) (layer "F.Fab") (tstamp efe65bfe-9184-4446-bbd3-8262657a7bdc))
  (fp_line (start 5.2451 -0.473) (end 5.2451 -0.473)
    (stroke (width 0.1) (type solid)) (layer "F.Fab") (tstamp 71db7d6d-c2ab-45eb-ace3-f9baed21a3ee))
  (fp_line (start 5.2451 -0.327) (end 5.2451 -0.327)
    (stroke (width 0.1) (type solid)) (layer "F.Fab") (tstamp be8b17b5-3cae-4e28-9553-1b87eeabfcec))
  (fp_line (start 5.2451 -0.327) (end 5.2451 -0.073)
    (stroke (width 0.1) (type solid)) (layer "F.Fab") (tstamp 2ed95a5b-0987-4b54-bfc7-66d9ff93975e))
  (fp_line (start 5.2451 -0.073) (end 5.2451 -0.327)
    (stroke (width 0.1) (type solid)) (layer "F.Fab") (tstamp e94001a4-8876-436e-8b22-1d4f8dc431e2))
  (fp_line (start 5.2451 -0.073) (end 5.2451 -0.073)
    (stroke (width 0.1) (type solid)) (layer "F.Fab") (tstamp dc30103b-2e90-48d4-ac4b-cf3d79735de7))
  (fp_line (start 5.2451 0.073) (end 5.2451 0.073)
    (stroke (width 0.1) (type solid)) (layer "F.Fab") (tstamp 19afbdc0-c806-4fdb-b84a-177368f07ce0))
  (fp_line (start 5.2451 0.073) (end 5.2451 0.327)
    (stroke (width 0.1) (type solid)) (layer "F.Fab") (tstamp 9bce3e17-6502-43d9-bead-70c0a2917c36))
  (fp_line (start 5.2451 0.327) (end 5.2451 0.073)
    (stroke (width 0.1) (type solid)) (layer "F.Fab") (tstamp afb4fe60-58fb-4581-8539-2a28d9473369))
  (fp_line (start 5.2451 0.327) (end 5.2451 0.327)
    (stroke (width 0.1) (type solid)) (layer "F.Fab") (tstamp f523e2c0-1cb2-4f0b-806c-385c82750d12))
  (fp_line (start 5.2451 0.473) (end 5.2451 0.473)
    (stroke (width 0.1) (type solid)) (layer "F.Fab") (tstamp 4664dbe8-280d-45db-ad16-d25fc49bc2aa))
  (fp_line (start 5.2451 0.473) (end 5.2451 0.727)
    (stroke (width 0.1) (type solid)) (layer "F.Fab") (tstamp 8518bd3a-dbf8-460f-acc4-a91d37e1ee6c))
  (fp_line (start 5.2451 0.727) (end 5.2451 0.473)
    (stroke (width 0.1) (type solid)) (layer "F.Fab") (tstamp 17d7e779-46d3-4202-8df4-c0704f714de6))
  (fp_line (start 5.2451 0.727) (end 5.2451 0.727)
    (stroke (width 0.1) (type solid)) (layer "F.Fab") (tstamp bcfc8754-1847-4d4d-8487-92e0ec5cf98f))
  (fp_line (start 5.2451 0.873) (end 5.2451 0.873)
    (stroke (width 0.1) (type solid)) (layer "F.Fab") (tstamp d8f7de9f-99da-4266-9d86-03c4ad2cb609))
  (fp_line (start 5.2451 0.873) (end 5.2451 1.127)
    (stroke (width 0.1) (type solid)) (layer "F.Fab") (tstamp 3a5bc305-a0fd-4599-b720-b0a803b3c753))
  (fp_line (start 5.2451 1.127) (end 5.2451 0.873)
    (stroke (width 0.1) (type solid)) (layer "F.Fab") (tstamp 009bf76a-5623-4443-8fec-7fc8edfccaa9))
  (fp_line (start 5.2451 1.127) (end 5.2451 1.127)
    (stroke (width 0.1) (type solid)) (layer "F.Fab") (tstamp 587584ab-7079-4f39-98dd-cf17f0a64d63))
  (fp_line (start 5.2451 1.273) (end 5.2451 1.273)
    (stroke (width 0.1) (type solid)) (layer "F.Fab") (tstamp e578ca24-1078-4cf3-b5c3-036877b01f0f))
  (fp_line (start 5.2451 1.273) (end 5.2451 1.527)
    (stroke (width 0.1) (type solid)) (layer "F.Fab") (tstamp dd3293ca-7624-4acb-8f03-f9dbd411954d))
  (fp_line (start 5.2451 1.527) (end 5.2451 1.273)
    (stroke (width 0.1) (type solid)) (layer "F.Fab") (tstamp bf256019-db1f-4027-bab9-bcfcdbe5790b))
  (fp_line (start 5.2451 1.527) (end 5.2451 1.527)
    (stroke (width 0.1) (type solid)) (layer "F.Fab") (tstamp ebb4c67b-61c1-404b-9e68-fea7346b35ed))
  (fp_line (start 5.2451 1.673) (end 5.2451 1.673)
    (stroke (width 0.1) (type solid)) (layer "F.Fab") (tstamp fce2d752-fb41-4eb2-ad3f-51cd6a668769))
  (fp_line (start 5.2451 1.673) (end 5.2451 1.927)
    (stroke (width 0.1) (type solid)) (layer "F.Fab") (tstamp 5a396f54-9c53-47ea-a367-79786f48ec16))
  (fp_line (start 5.2451 1.927) (end 5.2451 1.673)
    (stroke (width 0.1) (type solid)) (layer "F.Fab") (tstamp 332570d5-5ff1-4be1-94b6-684185f7aeb9))
  (fp_line (start 5.2451 1.927) (end 5.2451 1.927)
    (stroke (width 0.1) (type solid)) (layer "F.Fab") (tstamp e9d0d3ac-ba74-4a7a-a936-102b365214d9))
  (fp_line (start 5.2451 2.073) (end 5.2451 2.073)
    (stroke (width 0.1) (type solid)) (layer "F.Fab") (tstamp 6d0436c2-9e3d-48d1-b41f-fb8a82d79421))
  (fp_line (start 5.2451 2.073) (end 5.2451 2.327)
    (stroke (width 0.1) (type solid)) (layer "F.Fab") (tstamp 6059d163-3c2d-4066-994a-e93da875fc7d))
  (fp_line (start 5.2451 2.327) (end 5.2451 2.073)
    (stroke (width 0.1) (type solid)) (layer "F.Fab") (tstamp 3795046c-375b-4d92-9813-8660118671e5))
  (fp_line (start 5.2451 2.327) (end 5.2451 2.327)
    (stroke (width 0.1) (type solid)) (layer "F.Fab") (tstamp 296a59e7-ae09-4992-a71f-5f61a935be98))
  (fp_line (start 5.2451 2.473) (end 5.2451 2.473)
    (stroke (width 0.1) (type solid)) (layer "F.Fab") (tstamp 78fd3a47-351e-48bb-b5a1-13bbeba50153))
  (fp_line (start 5.2451 2.473) (end 5.2451 2.727)
    (stroke (width 0.1) (type solid)) (layer "F.Fab") (tstamp d0369669-da29-41a9-b89e-2ba1017af38c))
  (fp_line (start 5.2451 2.727) (end 5.2451 2.473)
    (stroke (width 0.1) (type solid)) (layer "F.Fab") (tstamp bfb1dc00-c502-46fa-8a20-f25450431499))
  (fp_line (start 5.2451 2.727) (end 5.2451 2.727)
    (stroke (width 0.1) (type solid)) (layer "F.Fab") (tstamp 01125591-f02d-4f60-99a0-7fef6af2861d))
  (fp_line (start 5.2451 3.2512) (end 5.2451 -3.2512)
    (stroke (width 0.1) (type solid)) (layer "F.Fab") (tstamp 41968a51-b892-49db-9701-6707a307e03b))
  (pad "1" smd rect (at -5.172499 -2.6 90) (size 0.2032 0.7548) (layers "F.Cu" "F.Paste" "F.Mask") (tstamp 6999da3b-259f-4e2b-acdc-8f796436af0e))
  (pad "2" smd rect (at -5.172499 -2.200001 90) (size 0.2032 0.7548) (layers "F.Cu" "F.Paste" "F.Mask") (tstamp 6e5a3156-a442-4980-b3c3-825dbe0a6b51))
  (pad "3" smd rect (at -5.172499 -1.799999 90) (size 0.2032 0.7548) (layers "F.Cu" "F.Paste" "F.Mask") (tstamp 7ee90c17-f4bd-4972-a674-e40ba022a8cb))
  (pad "4" smd rect (at -5.172499 -1.4 90) (size 0.2032 0.7548) (layers "F.Cu" "F.Paste" "F.Mask") (tstamp 8bdf8319-53d6-4e62-b4ef-7b64ae3c73b6))
  (pad "5" smd rect (at -5.172499 -1.000001 90) (size 0.2032 0.7548) (layers "F.Cu" "F.Paste" "F.Mask") (tstamp f800ee8e-b46e-4b08-8a6f-e7cb5f973293))
  (pad "6" smd rect (at -5.172499 -0.599999 90) (size 0.2032 0.7548) (layers "F.Cu" "F.Paste" "F.Mask") (tstamp acadd437-79a6-4825-a175-3056759488e9))
  (pad "7" smd rect (at -5.172499 -0.2 90) (size 0.2032 0.7548) (layers "F.Cu" "F.Paste" "F.Mask") (tstamp 1e0e64b7-227c-4a5e-a282-d205f8398310))
  (pad "8" smd rect (at -5.172499 0.2 90) (size 0.2032 0.7548) (layers "F.Cu" "F.Paste" "F.Mask") (tstamp 674d2db0-9075-4d21-8926-6855b670baeb))
  (pad "9" smd rect (at -5.172499 0.599999 90) (size 0.2032 0.7548) (layers "F.Cu" "F.Paste" "F.Mask") (tstamp eed66368-8ca1-4f3c-bb40-114249e51b70))
  (pad "10" smd rect (at -5.172499 1.000001 90) (size 0.2032 0.7548) (layers "F.Cu" "F.Paste" "F.Mask") (tstamp 2b0f2712-5daa-45a3-9cf3-571560d3c776))
  (pad "11" smd rect (at -5.172499 1.4 90) (size 0.2032 0.7548) (layers "F.Cu" "F.Paste" "F.Mask") (tstamp c199c56c-818a-4779-938a-9f9781117222))
  (pad "12" smd rect (at -5.172499 1.799999 90) (size 0.2032 0.7548) (layers "F.Cu" "F.Paste" "F.Mask") (tstamp cf700ece-746a-4ee4-b19c-f110890ebc8a))
  (pad "13" smd rect (at -5.172499 2.200001 90) (size 0.2032 0.7548) (layers "F.Cu" "F.Paste" "F.Mask") (tstamp ae9a2fb3-367c-44f5-ad22-6c673a368c24))
  (pad "14" smd rect (at -5.172499 2.6 90) (size 0.2032 0.7548) (layers "F.Cu" "F.Paste" "F.Mask") (tstamp 00a8d06e-be51-43ed-8595-5673db28b19f))
  (pad "15" smd rect (at -4.599998 3.178599) (size 0.2032 0.7548) (layers "F.Cu" "F.Paste" "F.Mask") (tstamp a7959ea0-56e6-4854-aecf-a30f4565a957))
  (pad "16" smd rect (at -4.199999 3.178599) (size 0.2032 0.7548) (layers "F.Cu" "F.Paste" "F.Mask") (tstamp cf710263-3a65-495e-8a88-88287f374480))
  (pad "17" smd rect (at -3.8 3.178599) (size 0.2032 0.7548) (layers "F.Cu" "F.Paste" "F.Mask") (tstamp 5607b55b-4e16-4a8e-91ae-d112212adb2b))
  (pad "18" smd rect (at -3.400001 3.178599) (size 0.2032 0.7548) (layers "F.Cu" "F.Paste" "F.Mask") (tstamp 9a0b749d-5812-4036-9fda-1c2cf641977a))
  (pad "19" smd rect (at -2.999999 3.178599) (size 0.2032 0.7548) (layers "F.Cu" "F.Paste" "F.Mask") (tstamp 12cdc8ff-37df-41db-b228-76bb5ad783ae))
  (pad "20" smd rect (at -2.6 3.178599) (size 0.2032 0.7548) (layers "F.Cu" "F.Paste" "F.Mask") (tstamp 1ef9b399-3600-45e6-8493-48cfeba14a3c))
  (pad "21" smd rect (at -2.200001 3.178599) (size 0.2032 0.7548) (layers "F.Cu" "F.Paste" "F.Mask") (tstamp 2d4153fb-a454-4f48-b935-4c5b8c75870f))
  (pad "22" smd rect (at -1.799999 3.178599) (size 0.2032 0.7548) (layers "F.Cu" "F.Paste" "F.Mask") (tstamp b6033d0b-b19b-4aa9-a818-c67a39ddfc3a))
  (pad "23" smd rect (at -1.4 3.178599) (size 0.2032 0.7548) (layers "F.Cu" "F.Paste" "F.Mask") (tstamp 2dee9c72-3344-47ca-a62a-b01a6a1577da))
  (pad "24" smd rect (at -1.000001 3.178599) (size 0.2032 0.7548) (layers "F.Cu" "F.Paste" "F.Mask") (tstamp 92dc2911-4d93-41c3-9c2b-0e46f9ed8aba))
  (pad "25" smd rect (at -0.599999 3.178599) (size 0.2032 0.7548) (layers "F.Cu" "F.Paste" "F.Mask") (tstamp 0e1f8b8d-b6f8-4f3b-8b17-1e3308279c07))
  (pad "26" smd rect (at -0.2 3.178599) (size 0.2032 0.7548) (layers "F.Cu" "F.Paste" "F.Mask") (tstamp 9d905f49-f22d-4544-a5a0-f6ea0cc233ec))
  (pad "27" smd rect (at 0.2 3.178599) (size 0.2032 0.7548) (layers "F.Cu" "F.Paste" "F.Mask") (tstamp 8fd58121-20f1-4525-ac25-97c254da53d7))
  (pad "28" smd rect (at 0.599999 3.178599) (size 0.2032 0.7548) (layers "F.Cu" "F.Paste" "F.Mask") (tstamp 80180723-30d1-4e03-a955-4fe5e79afa65))
  (pad "29" smd rect (at 1.000001 3.178599) (size 0.2032 0.7548) (layers "F.Cu" "F.Paste" "F.Mask") (tstamp 647f1375-7b2a-4bbf-8a5c-2a27152069c3))
  (pad "30" smd rect (at 1.4 3.178599) (size 0.2032 0.7548) (layers "F.Cu" "F.Paste" "F.Mask") (tstamp 1585147d-4d22-4f60-b02b-6076a129d8ca))
  (pad "31" smd rect (at 1.799999 3.178599) (size 0.2032 0.7548) (layers "F.Cu" "F.Paste" "F.Mask") (tstamp 5fc96e55-cc30-42b2-95ca-7c6df0830661))
  (pad "32" smd rect (at 2.200001 3.178599) (size 0.2032 0.7548) (layers "F.Cu" "F.Paste" "F.Mask") (tstamp eabd8676-47ae-4e90-bb9e-c20132f94cb7))
  (pad "33" smd rect (at 2.6 3.178599) (size 0.2032 0.7548) (layers "F.Cu" "F.Paste" "F.Mask") (tstamp 92c8426a-57bd-4b77-b869-fe45a7ff7f29))
  (pad "34" smd rect (at 2.999999 3.178599) (size 0.2032 0.7548) (layers "F.Cu" "F.Paste" "F.Mask") (tstamp 64a54db0-8f5b-4b27-a7dd-47d512111717))
  (pad "35" smd rect (at 3.400001 3.178599) (size 0.2032 0.7548) (layers "F.Cu" "F.Paste" "F.Mask") (tstamp 5011f743-f3c5-4eac-b5a8-086470dfd766))
  (pad "36" smd rect (at 3.8 3.178599) (size 0.2032 0.7548) (layers "F.Cu" "F.Paste" "F.Mask") (tstamp e3101833-a185-4763-b2c5-6b80af368fce))
  (pad "37" smd rect (at 4.199999 3.178599) (size 0.2032 0.7548) (layers "F.Cu" "F.Paste" "F.Mask") (tstamp de8505af-1c57-47e7-b0bd-63ad445b9b08))
  (pad "38" smd rect (at 4.599998 3.178599) (size 0.2032 0.7548) (layers "F.Cu" "F.Paste" "F.Mask") (tstamp 246780c4-e6cd-4690-b7a2-fb900aaa3b13))
  (pad "39" smd rect (at 5.172499 2.6 90) (size 0.2032 0.7548) (layers "F.Cu" "F.Paste" "F.Mask") (tstamp e439719a-dc89-4a1e-8674-fdc716803103))
  (pad "40" smd rect (at 5.172499 2.200001 90) (size 0.2032 0.7548) (layers "F.Cu" "F.Paste" "F.Mask") (tstamp d094d867-65c5-4f1f-974e-b0eee7b5f782))
  (pad "41" smd rect (at 5.172499 1.799999 90) (size 0.2032 0.7548) (layers "F.Cu" "F.Paste" "F.Mask") (tstamp 7326f046-25fb-429a-bfda-76c3f9a07f90))
  (pad "42" smd rect (at 5.172499 1.4 90) (size 0.2032 0.7548) (layers "F.Cu" "F.Paste" "F.Mask") (tstamp f31a1e90-0d7f-4b2c-ae29-eb48b41f47e6))
  (pad "43" smd rect (at 5.172499 1.000001 90) (size 0.2032 0.7548) (layers "F.Cu" "F.Paste" "F.Mask") (tstamp bc86d48a-30c2-430f-b882-309930fa06db))
  (pad "44" smd rect (at 5.172499 0.599999 90) (size 0.2032 0.7548) (layers "F.Cu" "F.Paste" "F.Mask") (tstamp 3dc79e44-daa5-4d13-9995-e3abd50cb742))
  (pad "45" smd rect (at 5.172499 0.2 90) (size 0.2032 0.7548) (layers "F.Cu" "F.Paste" "F.Mask") (tstamp 51d38f23-af54-402e-9ab8-5cd029212f4f))
  (pad "46" smd rect (at 5.172499 -0.2 90) (size 0.2032 0.7548) (layers "F.Cu" "F.Paste" "F.Mask") (tstamp 8857fd55-d3ab-4e30-8c59-abd344b2e75a))
  (pad "47" smd rect (at 5.172499 -0.599999 90) (size 0.2032 0.7548) (layers "F.Cu" "F.Paste" "F.Mask") (tstamp b2f41206-b666-44cb-a7eb-a62efae68552))
  (pad "48" smd rect (at 5.172499 -1.000001 90) (size 0.2032 0.7548) (layers "F.Cu" "F.Paste" "F.Mask") (tstamp 71875d61-c530-4e33-a346-cc1a412d89d0))
  (pad "49" smd rect (at 5.172499 -1.4 90) (size 0.2032 0.7548) (layers "F.Cu" "F.Paste" "F.Mask") (tstamp 6b1f3292-69cb-4d45-b0eb-dfe3236790b0))
  (pad "50" smd rect (at 5.172499 -1.799999 90) (size 0.2032 0.7548) (layers "F.Cu" "F.Paste" "F.Mask") (tstamp b98d6bbc-1645-4d68-9018-add6cd061d49))
  (pad "51" smd rect (at 5.172499 -2.200001 90) (size 0.2032 0.7548) (layers "F.Cu" "F.Paste" "F.Mask") (tstamp b617c96b-69b1-437e-a767-ae9e989de46a))
  (pad "52" smd rect (at 5.172499 -2.6 90) (size 0.2032 0.7548) (layers "F.Cu" "F.Paste" "F.Mask") (tstamp 919ab04b-df9e-4a46-86c4-d986c7ccf318))
  (pad "53" smd rect (at 4.599998 -3.178599) (size 0.2032 0.7548) (layers "F.Cu" "F.Paste" "F.Mask") (tstamp 523f037d-7662-4efd-826f-d6323f9deede))
  (pad "54" smd rect (at 4.199999 -3.178599) (size 0.2032 0.7548) (layers "F.Cu" "F.Paste" "F.Mask") (tstamp 5bf65341-a73b-4463-a08c-c8a9dc35f4da))
  (pad "55" smd rect (at 3.8 -3.178599) (size 0.2032 0.7548) (layers "F.Cu" "F.Paste" "F.Mask") (tstamp 5e8b7144-f7a6-4923-98ec-2d06be646a8a))
  (pad "56" smd rect (at 3.400001 -3.178599) (size 0.2032 0.7548) (layers "F.Cu" "F.Paste" "F.Mask") (tstamp 8ab87d89-c4fe-460f-a0f2-17384d8a0efb))
  (pad "57" smd rect (at 2.999999 -3.178599) (size 0.2032 0.7548) (layers "F.Cu" "F.Paste" "F.Mask") (tstamp 48dddff2-f2e8-4f21-ba21-300ed1791db9))
  (pad "58" smd rect (at 2.6 -3.178599) (size 0.2032 0.7548) (layers "F.Cu" "F.Paste" "F.Mask") (tstamp 4d5135d1-1af8-4327-babc-8b009da83f4c))
  (pad "59" smd rect (at 2.200001 -3.178599) (size 0.2032 0.7548) (layers "F.Cu" "F.Paste" "F.Mask") (tstamp 78ef6564-e60f-4324-bc98-9bb1771c99e1))
  (pad "60" smd rect (at 1.799999 -3.178599) (size 0.2032 0.7548) (layers "F.Cu" "F.Paste" "F.Mask") (tstamp c9c49b42-40a2-44e7-8195-dade5caed314))
  (pad "61" smd rect (at 1.4 -3.178599) (size 0.2032 0.7548) (layers "F.Cu" "F.Paste" "F.Mask") (tstamp b17ed61d-311b-4dc7-a6b6-eeb417cb1d98))
  (pad "62" smd rect (at 1.000001 -3.178599) (size 0.2032 0.7548) (layers "F.Cu" "F.Paste" "F.Mask") (tstamp 85a382bd-8dbf-4ed7-90b5-534901deec94))
  (pad "63" smd rect (at 0.599999 -3.178599) (size 0.2032 0.7548) (layers "F.Cu" "F.Paste" "F.Mask") (tstamp 558a78c8-3514-4b77-9669-3423c73c129f))
  (pad "64" smd rect (at 0.2 -3.178599) (size 0.2032 0.7548) (layers "F.Cu" "F.Paste" "F.Mask") (tstamp 635d0ff3-78c6-4689-bd88-9bdda80d7fdc))
  (pad "65" smd rect (at -0.2 -3.178599) (size 0.2032 0.7548) (layers "F.Cu" "F.Paste" "F.Mask") (tstamp 1342c5ed-dc6e-484f-b30a-dd95d502a62f))
  (pad "66" smd rect (at -0.599999 -3.178599) (size 0.2032 0.7548) (layers "F.Cu" "F.Paste" "F.Mask") (tstamp 5e8df746-c7b4-45b8-80ef-92da4e1269e2))
  (pad "67" smd rect (at -1.000001 -3.178599) (size 0.2032 0.7548) (layers "F.Cu" "F.Paste" "F.Mask") (tstamp 26969c7d-02d5-4ba4-a45e-feb52f3537a0))
  (pad "68" smd rect (at -1.4 -3.178599) (size 0.2032 0.7548) (layers "F.Cu" "F.Paste" "F.Mask") (tstamp 93484f1e-780b-45a0-a944-6e98798432c0))
  (pad "69" smd rect (at -1.799999 -3.178599) (size 0.2032 0.7548) (layers "F.Cu" "F.Paste" "F.Mask") (tstamp 5bfd271e-3b6e-4ee1-b0cd-b2080bd91d71))
  (pad "70" smd rect (at -2.200001 -3.178599) (size 0.2032 0.7548) (layers "F.Cu" "F.Paste" "F.Mask") (tstamp db97b83d-132d-4849-aaa2-426d13092648))
  (pad "71" smd rect (at -2.6 -3.178599) (size 0.2032 0.7548) (layers "F.Cu" "F.Paste" "F.Mask") (tstamp c551651c-3549-4a48-bfe2-e0d8a8887f13))
  (pad "72" smd rect (at -2.999999 -3.178599) (size 0.2032 0.7548) (layers "F.Cu" "F.Paste" "F.Mask") (tstamp ffad783c-70a4-4628-b56d-b5205981c98c))
  (pad "73" smd rect (at -3.400001 -3.178599) (size 0.2032 0.7548) (layers "F.Cu" "F.Paste" "F.Mask") (tstamp 211c4d24-95e4-4164-b8a2-4daff15bff8d))
  (pad "74" smd rect (at -3.8 -3.178599) (size 0.2032 0.7548) (layers "F.Cu" "F.Paste" "F.Mask") (tstamp 5b05bf6f-f391-4ea1-82ab-3518944379fb))
  (pad "75" smd rect (at -4.199999 -3.178599) (size 0.2032 0.7548) (layers "F.Cu" "F.Paste" "F.Mask") (tstamp ac22c977-309d-4352-8135-9eac7b5586eb))
  (pad "76" smd rect (at -4.599998 -3.178599) (size 0.2032 0.7548) (layers "F.Cu" "F.Paste" "F.Mask") (tstamp e32ffbf6-2ea9-4a32-bf6f-1e05ff76bc47))
  (pad "77" smd rect (at 0 0) (size 8.9916 5.0038) (layers "F.Cu" "F.Paste" "F.Mask") (tstamp 8ed0d43b-3503-4688-99f1-c6fc84ce6033))
)
