(footprint "EPC2104" (version 20211014) (generator pcbnew)
  (layer "F.Cu")
  (tedit 0)
  (attr smd)
  (fp_text reference "REF**" (at 0 -5.025 unlocked) (layer "F.SilkS")
    (effects (font (size 1 1) (thickness 0.15)))
    (tstamp a6db09e0-e59b-41ed-a478-b083cab7c6fb)
  )
  (fp_text value "EPC2104" (at 0 -3.525 unlocked) (layer "F.Fab")
    (effects (font (size 1 1) (thickness 0.15)))
    (tstamp 9e983496-f4a5-44c5-9ae8-a955e490d02a)
  )
  (fp_text user "${REFERENCE}" (at 0 -2.025 unlocked) (layer "F.Fab")
    (effects (font (size 1 1) (thickness 0.15)))
    (tstamp 7d7ef908-db1c-4f2d-9cc5-3c52fc6c5e35)
  )
  (fp_rect (start -3.1 -1.2) (end 3.1 1.2) (layer "F.SilkS") (width 0.12) (fill none) (tstamp fb88b64f-eed6-4217-beee-705daf9a13b2))
  (fp_circle (center -3.4 -1) (end -3.3 -1) (layer "F.SilkS") (width 0.12) (fill none) (tstamp 29f37e2b-d857-4bc1-ad46-2fc4e4d605fb))
  (fp_circle (center -2.9 -1.5) (end -2.9 -1.6) (layer "F.SilkS") (width 0.12) (fill none) (tstamp af81ba7a-7afb-4d37-a62e-da1da4934510))
  (fp_circle (center -3.4 -1.5) (end -3.4 -1.6) (layer "F.SilkS") (width 0.12) (fill none) (tstamp bb3f7088-a56e-4b29-8793-8afa3ba14f4f))
  (pad "1" smd circle (at -2 -0.45) (size 0.255 0.255) (layers "F.Cu" "F.Paste" "F.Mask") (tstamp 09ae4a26-5192-4fcb-8227-d09745745ee3))
  (pad "1" smd circle (at 2 -0.9) (size 0.255 0.255) (layers "F.Cu" "F.Paste" "F.Mask") (tstamp 13f93c54-d2da-4435-8a8b-6935fd33cd4c))
  (pad "1" smd circle (at -2 -0.9) (size 0.255 0.255) (layers "F.Cu" "F.Paste" "F.Mask") (tstamp 2672410e-e779-444b-83c2-50d7fe3a818f))
  (pad "1" smd circle (at 2 -0.45) (size 0.255 0.255) (layers "F.Cu" "F.Paste" "F.Mask") (tstamp 29a66603-bb19-45f1-8500-740dcd9139d7))
  (pad "1" smd circle (at 0.4 -0.45) (size 0.255 0.255) (layers "F.Cu" "F.Paste" "F.Mask") (tstamp 34f79d3f-358a-408b-badc-aa2f9f48453a))
  (pad "1" smd circle (at -2.8 -0.9) (size 0.255 0.255) (layers "F.Cu" "F.Paste" "F.Mask") (tstamp 3c4a8384-f789-42c1-96eb-5c7cd05fca76))
  (pad "1" smd circle (at -0.4 -0.45) (size 0.255 0.255) (layers "F.Cu" "F.Paste" "F.Mask") (tstamp 42046441-1f51-4f3a-8117-3f9000f936b3))
  (pad "1" smd circle (at -1.2 -0.9) (size 0.255 0.255) (layers "F.Cu" "F.Paste" "F.Mask") (tstamp 59088873-e3c9-4c9a-b2ba-b36b0821b70b))
  (pad "1" smd circle (at 1.2 -0.45) (size 0.255 0.255) (layers "F.Cu" "F.Paste" "F.Mask") (tstamp 6aebdbc8-6b92-426c-8e8e-b66f21b8fac8))
  (pad "1" smd circle (at -2 0) (size 0.255 0.255) (layers "F.Cu" "F.Paste" "F.Mask") (tstamp 7a68d6e6-ab28-4a38-ba90-eaead2cd1787))
  (pad "1" smd circle (at 2.8 -0.9) (size 0.255 0.255) (layers "F.Cu" "F.Paste" "F.Mask") (tstamp 83d0c04f-ebda-455d-aff2-24ac4e8826e7))
  (pad "1" smd circle (at -1.2 0) (size 0.255 0.255) (layers "F.Cu" "F.Paste" "F.Mask") (tstamp 88317339-1572-4349-a321-dbff72f08ba1))
  (pad "1" smd circle (at -1.2 -0.45) (size 0.255 0.255) (layers "F.Cu" "F.Paste" "F.Mask") (tstamp 906fdf9b-c9dc-4731-b395-be8ee26057f3))
  (pad "1" smd circle (at 1.2 -0.9) (size 0.255 0.255) (layers "F.Cu" "F.Paste" "F.Mask") (tstamp b03d16b5-a582-4306-b30b-2e0b2ede67d3))
  (pad "1" smd circle (at 2.8 -0.45) (size 0.255 0.255) (layers "F.Cu" "F.Paste" "F.Mask") (tstamp b8cdd76d-f65d-480f-8c2f-49e96247bd98))
  (pad "1" smd circle (at -0.4 -0.9) (size 0.255 0.255) (layers "F.Cu" "F.Paste" "F.Mask") (tstamp bcbde3ca-0e95-4e64-9803-53dab06f4c76))
  (pad "1" smd circle (at 0.4 -0.9) (size 0.255 0.255) (layers "F.Cu" "F.Paste" "F.Mask") (tstamp bdbdad86-2fff-48f9-9b23-26a7c68b09b0))
  (pad "1" smd circle (at -0.4 0) (size 0.255 0.255) (layers "F.Cu" "F.Paste" "F.Mask") (tstamp e42364b6-623a-4329-b2b8-5f4973d718b9))
  (pad "2" smd circle (at -2.8 -0.45) (size 0.255 0.255) (layers "F.Cu" "F.Paste" "F.Mask") (tstamp 66a3d3e2-4644-4bb7-aee2-28762810d257))
  (pad "3" smd circle (at -2.8 0) (size 0.255 0.255) (layers "F.Cu" "F.Paste" "F.Mask") (tstamp 46efbdae-145e-4d1c-89b7-d5a9d3f5ada3))
  (pad "4" smd circle (at -2.8 0.45) (size 0.255 0.255) (layers "F.Cu" "F.Paste" "F.Mask") (tstamp ea30119c-1dc1-4a8e-8253-edb82f11e358))
  (pad "5" smd circle (at 1.2 0.9) (size 0.255 0.255) (layers "F.Cu" "F.Paste" "F.Mask") (tstamp 34c0155b-9c60-4483-a005-bcda2b5552de))
  (pad "5" smd circle (at -1.2 0.9) (size 0.255 0.255) (layers "F.Cu" "F.Paste" "F.Mask") (tstamp 43b279e3-3b71-4dce-802a-8b19e2e3c9c0))
  (pad "5" smd circle (at 0.4 0.9) (size 0.255 0.255) (layers "F.Cu" "F.Paste" "F.Mask") (tstamp 5e3bf75b-3655-481a-a283-e01068f0548f))
  (pad "5" smd circle (at -0.4 0.45) (size 0.255 0.255) (layers "F.Cu" "F.Paste" "F.Mask") (tstamp 5f3ddc95-6b3f-4154-a39a-f87489f301ee))
  (pad "5" smd circle (at 1.2 0) (size 0.255 0.255) (layers "F.Cu" "F.Paste" "F.Mask") (tstamp 6babf800-db5b-4043-8aa1-2472abe1d8df))
  (pad "5" smd circle (at 2 0.45) (size 0.255 0.255) (layers "F.Cu" "F.Paste" "F.Mask") (tstamp 6c65a6e0-6bbb-4032-842b-a5a37ee32270))
  (pad "5" smd circle (at -2.8 0.9) (size 0.255 0.255) (layers "F.Cu" "F.Paste" "F.Mask") (tstamp 70f1dbaa-883b-4363-a1a2-e2ac0a483add))
  (pad "5" smd circle (at 1.2 0.45) (size 0.255 0.255) (layers "F.Cu" "F.Paste" "F.Mask") (tstamp 8d6b9328-b1cc-470d-9fab-4d4d3525585c))
  (pad "5" smd circle (at 0.4 0.45) (size 0.255 0.255) (layers "F.Cu" "F.Paste" "F.Mask") (tstamp 92c46b7a-16d5-432d-a1d9-63f34e9fd4f6))
  (pad "5" smd circle (at -0.4 0.9) (size 0.255 0.255) (layers "F.Cu" "F.Paste" "F.Mask") (tstamp 974702a5-ab1f-4628-8359-0705cce63993))
  (pad "5" smd circle (at 2.8 0) (size 0.255 0.255) (layers "F.Cu" "F.Paste" "F.Mask") (tstamp a6399333-26c1-4ae8-ac01-e674fe6ed98e))
  (pad "5" smd circle (at 2.8 0.9) (size 0.255 0.255) (layers "F.Cu" "F.Paste" "F.Mask") (tstamp b2a47cdf-9ef8-41a0-9f15-06f151788772))
  (pad "5" smd circle (at 2.8 0.45) (size 0.255 0.255) (layers "F.Cu" "F.Paste" "F.Mask") (tstamp c235064d-f9ea-4bff-8bcd-c2bb9ee4bd27))
  (pad "5" smd circle (at -2 0.45) (size 0.255 0.255) (layers "F.Cu" "F.Paste" "F.Mask") (tstamp de160ad1-b9d5-4bae-93bc-9091cae10fc5))
  (pad "5" smd circle (at -1.2 0.45) (size 0.255 0.255) (layers "F.Cu" "F.Paste" "F.Mask") (tstamp ded8b378-0abc-409b-a09e-34770413c6cc))
  (pad "5" smd circle (at 2 0.9) (size 0.255 0.255) (layers "F.Cu" "F.Paste" "F.Mask") (tstamp e3aea841-9f26-4e81-a597-17fe42e25b33))
  (pad "5" smd circle (at 2 0) (size 0.255 0.255) (layers "F.Cu" "F.Paste" "F.Mask") (tstamp ea74dff3-4cf9-4134-bf09-d914daac669d))
  (pad "5" smd circle (at 0.4 0) (size 0.255 0.255) (layers "F.Cu" "F.Paste" "F.Mask") (tstamp f0ecff4f-0f7b-4414-be29-f92bc24bec0b))
  (pad "5" smd circle (at -2 0.9) (size 0.255 0.255) (layers "F.Cu" "F.Paste" "F.Mask") (tstamp f303892e-4cee-4534-8261-aeaa35c63c5f))
  (pad "6" smd circle (at 2.4 -0.9) (size 0.255 0.255) (layers "F.Cu" "F.Paste" "F.Mask") (tstamp 0d2f28fb-8ef0-454c-a9bc-9f745b5ddd20))
  (pad "6" smd circle (at -0.8 0.9) (size 0.255 0.255) (layers "F.Cu" "F.Paste" "F.Mask") (tstamp 136492db-1c74-4139-9c2d-174b5cdff051))
  (pad "6" smd circle (at -0.8 -0.45) (size 0.255 0.255) (layers "F.Cu" "F.Paste" "F.Mask") (tstamp 1d855ee8-9374-4393-9d36-a57c7b88df3a))
  (pad "6" smd circle (at 0.8 0.9) (size 0.255 0.255) (layers "F.Cu" "F.Paste" "F.Mask") (tstamp 223dedfe-7cb8-4458-ac9a-0f4fa9e7a627))
  (pad "6" smd circle (at 1.6 0) (size 0.255 0.255) (layers "F.Cu" "F.Paste" "F.Mask") (tstamp 30593809-7ea1-47e9-9ad8-43e898145a50))
  (pad "6" smd circle (at 2.4 -0.45) (size 0.255 0.255) (layers "F.Cu" "F.Paste" "F.Mask") (tstamp 31ed4ea6-3a18-4d6a-98f4-f030701286d4))
  (pad "6" smd circle (at -2.4 -0.45) (size 0.255 0.255) (layers "F.Cu" "F.Paste" "F.Mask") (tstamp 339c951c-697e-4144-a122-2607bc47c6c5))
  (pad "6" smd circle (at -2.4 0.9) (size 0.255 0.255) (layers "F.Cu" "F.Paste" "F.Mask") (tstamp 341e2101-a314-4127-82a5-cbd414ef85c5))
  (pad "6" smd circle (at -0.8 -0.9) (size 0.255 0.255) (layers "F.Cu" "F.Paste" "F.Mask") (tstamp 35547e59-2cf2-410e-ab7f-351738f4f010))
  (pad "6" smd circle (at -2.4 0.45) (size 0.255 0.255) (layers "F.Cu" "F.Paste" "F.Mask") (tstamp 35e170c2-3d05-461a-91cd-e1dbc3602931))
  (pad "6" smd circle (at 2.4 0.45) (size 0.255 0.255) (layers "F.Cu" "F.Paste" "F.Mask") (tstamp 368bb816-ceff-48b2-9e32-1e43a9b27b9c))
  (pad "6" smd circle (at 1.6 -0.45) (size 0.255 0.255) (layers "F.Cu" "F.Paste" "F.Mask") (tstamp 4837e4fa-7da3-4043-aa3a-12c890fb3864))
  (pad "6" smd circle (at 0 -0.9) (size 0.255 0.255) (layers "F.Cu" "F.Paste" "F.Mask") (tstamp 53843e1c-892c-42b0-a66c-f1adb0ce13a3))
  (pad "6" smd circle (at 2.4 0) (size 0.255 0.255) (layers "F.Cu" "F.Paste" "F.Mask") (tstamp 6e0b8440-db83-44d2-a6d6-051e3d282eee))
  (pad "6" smd circle (at -1.6 0.45) (size 0.255 0.255) (layers "F.Cu" "F.Paste" "F.Mask") (tstamp 6f4d9bae-d15b-4ae2-ba89-c768bb0e817a))
  (pad "6" smd circle (at 2.4 0.9) (size 0.255 0.255) (layers "F.Cu" "F.Paste" "F.Mask") (tstamp 735ad272-2e0f-46ff-b059-5aff0f714142))
  (pad "6" smd circle (at -1.6 -0.45) (size 0.255 0.255) (layers "F.Cu" "F.Paste" "F.Mask") (tstamp 92f19bef-40ef-4bb1-b219-dbd86c929721))
  (pad "6" smd circle (at 0.8 -0.9) (size 0.255 0.255) (layers "F.Cu" "F.Paste" "F.Mask") (tstamp 9e9565e5-780e-4f91-992a-92da3e819fc6))
  (pad "6" smd circle (at 1.6 0.9) (size 0.255 0.255) (layers "F.Cu" "F.Paste" "F.Mask") (tstamp a15d1372-df98-45fc-b669-89b14e062e7a))
  (pad "6" smd circle (at -2.4 0) (size 0.255 0.255) (layers "F.Cu" "F.Paste" "F.Mask") (tstamp ac4e611c-bc72-4e27-945b-86da804f8b5f))
  (pad "6" smd circle (at 0 0) (size 0.255 0.255) (layers "F.Cu" "F.Paste" "F.Mask") (tstamp b59e9a68-bb8f-4f8f-a3f0-901194b14abe))
  (pad "6" smd circle (at -1.6 0.9) (size 0.255 0.255) (layers "F.Cu" "F.Paste" "F.Mask") (tstamp befb7c56-53f9-43c6-898d-1a19168c7c3e))
  (pad "6" smd circle (at -1.6 -0.9) (size 0.255 0.255) (layers "F.Cu" "F.Paste" "F.Mask") (tstamp c4e04901-829a-4324-9b05-44bcd28aef24))
  (pad "6" smd circle (at 0.8 0) (size 0.255 0.255) (layers "F.Cu" "F.Paste" "F.Mask") (tstamp c5a3e940-6ca0-483b-8365-ceac17c8d928))
  (pad "6" smd circle (at 0 0.9) (size 0.255 0.255) (layers "F.Cu" "F.Paste" "F.Mask") (tstamp cab62226-49b3-4a7a-967e-74c5eee2d51f))
  (pad "6" smd circle (at -2.4 -0.9) (size 0.255 0.255) (layers "F.Cu" "F.Paste" "F.Mask") (tstamp cdd37716-d42c-4f11-a887-3aa16c06af64))
  (pad "6" smd circle (at 0 0.45) (size 0.255 0.255) (layers "F.Cu" "F.Paste" "F.Mask") (tstamp cf3517de-63ee-451b-8ec7-6c7fc5a2a46c))
  (pad "6" smd circle (at -0.8 0.45) (size 0.255 0.255) (layers "F.Cu" "F.Paste" "F.Mask") (tstamp cf582110-867a-4172-a00a-6c2f01269d26))
  (pad "6" smd circle (at 0.8 0.45) (size 0.255 0.255) (layers "F.Cu" "F.Paste" "F.Mask") (tstamp d0fa5fda-6f2e-4551-bdaf-166748671e43))
  (pad "6" smd circle (at 1.6 0.45) (size 0.255 0.255) (layers "F.Cu" "F.Paste" "F.Mask") (tstamp d34c90b1-e7c6-447b-9f7a-28dfab6951f7))
  (pad "6" smd circle (at 0.8 -0.45) (size 0.255 0.255) (layers "F.Cu" "F.Paste" "F.Mask") (tstamp e0d4d497-004a-4736-abe1-5e2aaa6b0c66))
  (pad "6" smd circle (at 1.6 -0.9) (size 0.255 0.255) (layers "F.Cu" "F.Paste" "F.Mask") (tstamp e200b3e4-a80b-4c33-943a-a3f2056cbaaf))
  (pad "6" smd circle (at 0 -0.45) (size 0.255 0.255) (layers "F.Cu" "F.Paste" "F.Mask") (tstamp e8c83077-f980-4ba8-8c94-a55f62d8fb1a))
  (pad "6" smd circle (at -0.8 0) (size 0.255 0.255) (layers "F.Cu" "F.Paste" "F.Mask") (tstamp f987d2b3-bfe1-4432-a3a9-f7e0150316bf))
  (pad "6" smd circle (at -1.6 0) (size 0.255 0.255) (layers "F.Cu" "F.Paste" "F.Mask") (tstamp ff9a3b16-422d-4b95-b9fe-d02e18eac375))
)
